Place,Name,Sex,Age,Equipment,Division,BodyweightKg,WeightClassKg,Squat1Kg,Squat2Kg,Squat3Kg,Best3SquatKg,Bench1Kg,Bench2Kg,Bench3Kg,Best3BenchKg,Deadlift1Kg,Deadlift2Kg,Deadlift3Kg,Best3DeadliftKg,TotalKg,Event,BirthDate,Tested
1,Yana Marks,F,18,Raw,J15-19,60,60,110,120,127.5,127.5,65,70,-75,70,127.5,137.5,147.5,147.5,345,SBD,,Yes
1,Noha Tsor,F,22,Raw,J20-23,62.64,67.5,85,90,95,95,50,57.5,60,60,100,110,125,125,280,SBD,,Yes
1,Simone Von Zum Hof,F,22,Raw,J20-23,81.52,82.5,130,140,-145,140,65,-70,70,70,152.5,162.5,170,170,380,SBD,,Yes
1,Jane Millers,F,48,Raw,M45-49,83.35,90,125,135,-137.5,135,50,55,60,60,120,130,-140,130,325,SBD,,Yes
1,Rosie Mandala,F,30,Raw,Open,55.02,56,105,-110,-110,105,60,-62.5,62.5,62.5,132.5,-140,-140,132.5,300,SBD,,Yes
1,Jessica Kennedy,F,28,Raw,Open,58.7,60,145,157.5,170,170,80,87.5,-92.5,87.5,150,165,-172.5,165,422.5,SBD,,Yes
2,Carlie Hasell,F,35,Raw,Open,59.4,60,130,137.5,-142.5,137.5,75,-80,-80,75,145,155,-160,155,367.5,SBD,,Yes
3,Yana Marks,F,18,Raw,Open,60,60,110,120,127.5,127.5,65,70,-75,70,127.5,137.5,147.5,147.5,345,SBD,,Yes
1,Irena Maree Pitsos,F,24,Raw,Open,64.48,67.5,92.5,100,105,105,52.5,60,-65,60,140,150,155,155,320,SBD,,Yes
2,Elle Feeney,F,31,Raw,Open,67.1,67.5,110,117.5,-120,117.5,52.5,-57.5,57.5,57.5,115,120,127.5,127.5,302.5,SBD,,Yes
3,Nikki Bates,F,26,Raw,Open,67.3,67.5,105,112.5,-117.5,112.5,50,-55,-55,50,117.5,125,132.5,132.5,295,SBD,,Yes
4,Maddi Skinner,F,25,Raw,Open,67.28,67.5,85,95,-100,95,70,75,-77.5,75,100,110,117.5,117.5,287.5,SBD,,Yes
5,Noha Tsor,F,22,Raw,Open,62.64,67.5,85,90,95,95,50,57.5,60,60,100,110,125,125,280,SBD,,Yes
1,Liorah Ayalon,F,31,Raw,Open,74.5,75,-115,115,117.5,117.5,50,-55,55,55,140,150,162.5,162.5,335,SBD,,Yes
2,Holly Moore,F,32,Raw,Open,73.96,75,80,85,-92.5,85,55,57.5,60,60,100,115,122.5,122.5,267.5,SBD,,Yes
1,Simone Von Zum Hof,F,22,Raw,Open,81.52,82.5,130,140,-145,140,65,-70,70,70,152.5,162.5,170,170,380,SBD,,Yes
2,Sarah Brown #6,F,31,Raw,Open,79.86,82.5,115,125,-130,125,67.5,72.5,75,75,130,137.5,-145,137.5,337.5,SBD,,Yes
1,Jane Millers,F,48,Raw,Open,83.35,90,125,135,-137.5,135,50,55,60,60,120,130,-140,130,325,SBD,,Yes
2,Megan O'Loughlin,F,27,Raw,Open,89.96,90,100,110,120,120,47.5,55,-57.5,55,107.5,117.5,127.5,127.5,302.5,SBD,,Yes
3,Amelia Higgins,F,24,Raw,Open,88.65,90,100,-110,110,110,47.5,-52.5,-52.5,47.5,130,140,-145,140,297.5,SBD,,Yes
1,Lauren Gallie,F,33,Raw,Open,126,110+,125,140,150,150,70,85,-95,85,140,152.5,160,160,395,SBD,,Yes
1,Jasmin Hussain,F,28,Wraps,Open,63.05,67.5,115,122.5,127.5,127.5,70,-75,-75,70,125,130,-135,130,327.5,SBD,,Yes
2,Mikaela Reffold,F,26,Wraps,Open,67.12,67.5,115,-120,120,120,65,-70,-72.5,65,115,120,-122.5,120,305,SBD,,Yes
1,Laura McLennan,F,24,Wraps,Open,71.92,75,130,140,150,150,70,77.5,80,80,135,150,160,160,390,SBD,,Yes
1,Stevie Templer-Long,F,34,Wraps,Open,78.52,82.5,135,145,150,150,70,75,77.5,77.5,150,160,165,165,392.5,SBD,,Yes
1,Riley Allsop,M,19,Raw,J15-19,89.96,90,205,215,-225,215,125,130,135,135,230,242.5,252.5,252.5,602.5,SBD,,Yes
2,Alexander Lara,M,17,Raw,J15-19,89.86,90,195,207.5,212.5,212.5,120,125,-127.5,125,210,225,235,235,572.5,SBD,,Yes
1,Tim McGill,M,21,Raw,J20-23,82.04,82.5,200,210,215,215,125,130,-132.5,130,220,230,-240,230,575,SBD,,Yes
2,George Wilson,M,20,Raw,J20-23,81.6,82.5,175,185,200,200,125,127.5,,127.5,210,220,227.5,227.5,555,SBD,,Yes
1,Arnie Ubiparipovic,M,22,Raw,J20-23,90.86,100,155,162.5,170,170,87.5,92.5,-100,92.5,175,185,-200,185,447.5,SBD,,Yes
1,Richard Southon,M,40,Raw,M40-44,118.6,125,260,-270,280,280,175,185,190,190,260,270,280,280,750,SBD,,Yes
1,Cranston Schwarz,M,54,Raw,M50-54,97.46,100,110,117.5,125,125,92.5,100,-105,100,182.5,192.5,200,200,425,SBD,,Yes
1,Bronson Bullock,M,26,Raw,Open,74.2,75,-140,152.5,-155,152.5,82.5,87.5,-90,87.5,145,155,170,170,410,SBD,,Yes
1,Tim McGill,M,21,Raw,Open,82.04,82.5,200,210,215,215,125,130,-132.5,130,220,230,-240,230,575,SBD,,Yes
2,Jesse Stewart,M,33,Raw,Open,81.7,82.5,190,197.5,205,205,130,135,-140,135,207.5,220,230,230,570,SBD,,Yes
3,George Wilson,M,20,Raw,Open,81.6,82.5,175,185,200,200,125,127.5,,127.5,210,220,227.5,227.5,555,SBD,,Yes
4,Peter Toohey,M,39,Raw,Open,82.24,82.5,175,-185,185,185,120,125,130,130,180,190,195,195,510,SBD,,Yes
1,Joseph Lu #1,M,30,Raw,Open,85.86,90,200,210,220,220,135,140,145,145,245,260,270,270,635,SBD,,Yes
2,Riley Allsop,M,19,Raw,Open,89.96,90,205,215,-225,215,125,130,135,135,230,242.5,252.5,252.5,602.5,SBD,,Yes
3,Isaac Bevan,M,25,Raw,Open,85.56,90,200,212.5,220,220,115,120,125,125,220,232.5,240,240,585,SBD,,Yes
4,Alexander Lara,M,17,Raw,Open,89.86,90,195,207.5,212.5,212.5,120,125,-127.5,125,210,225,235,235,572.5,SBD,,Yes
5,Ben Lynch,M,28,Raw,Open,86.8,90,160,170,-180,170,100,110,115,115,200,212.5,222.5,222.5,507.5,SBD,,Yes
6,Cameron de Wacht,M,26,Raw,Open,89.82,90,165,172.5,180,180,90,-95,-95,90,200,-215,220,220,490,SBD,,Yes
7,Roy Turner,M,32,Raw,Open,86.78,90,140,147.5,-155,147.5,90,95,-102.5,95,180,190,,190,432.5,SBD,,Yes
1,Luke O'Shea,M,26,Raw,Open,96.3,100,230,240,-250,240,120,127.5,130,130,240,250,260,260,630,SBD,,Yes
2,William Clarke,M,26,Raw,Open,98.6,100,192.5,202.5,210,210,102.5,110,115,115,215,227.5,237.5,237.5,562.5,SBD,,Yes
3,Arnie Ubiparipovic,M,22,Raw,Open,90.86,100,155,162.5,170,170,87.5,92.5,-100,92.5,175,185,-200,185,447.5,SBD,,Yes
4,Cranston Schwarz,M,54,Raw,Open,97.46,100,110,117.5,125,125,92.5,100,-105,100,182.5,192.5,200,200,425,SBD,,Yes
G,Otis Waldau,M,28,Raw,Open,96.92,100,160,170,-175,170,120,125,130,130,210,220,225,225,525,SBD,,
1,Jandre Van Der Walt,M,25,Raw,Open,106.4,110,150,160,165,165,110,117.5,-125,117.5,195,215,220,220,502.5,SBD,,Yes
G,Daniel Carpenter,M,31,Raw,Open,103.9,110,235,250,257.5,257.5,170,180,182.5,182.5,255,265,272.5,272.5,712.5,SBD,,
1,Richard Southon,M,40,Raw,Open,118.6,125,260,-270,280,280,175,185,190,190,260,270,280,280,750,SBD,,Yes
2,Adrian Croker,M,28,Raw,Open,114.6,125,180,-192.5,195,195,120,130,-135,130,210,225,235,235,560,SBD,,Yes
1,Darrell Tarrant-O'Neill,M,28,Raw,Open,136.8,140,240,250,-257.5,250,155,-165,-165,155,280,305,,305,710,SBD,,Yes
G,Brendan Lewis,M,35,Raw,Open,141.9,140+,290,-310,310,310,200,212.5,225,225,300,325,340,340,875,SBD,,
1,Jagdish Chauhan,M,53,Wraps,M50-54,64.44,67.5,160,172.5,180,180,77.5,-85,-85,77.5,185,195,-200,195,452.5,SBD,,Yes
1,Jagdish Chauhan,M,53,Wraps,Open,64.44,67.5,160,172.5,180,180,77.5,-85,-85,77.5,185,195,-200,195,452.5,SBD,,Yes
1,Brenton Moore,M,34,Wraps,Open,80.5,82.5,145,150,-157.5,150,100,107.5,-112.5,107.5,185,190,-200,190,447.5,SBD,,Yes
G,Nathan Ferguson,M,38,Wraps,Open,80.84,82.5,175,195,205,205,105,110,-115,110,190,205,215,215,530,SBD,,
1,Travis Nash,M,29,Wraps,Open,95.6,100,250,260,,260,150,160,-165,160,260,280,-300,280,700,SBD,,Yes
1,Daniel Crowder,M,25,Wraps,Open,116.4,125,230,240,250,250,135,-140,140,140,247.5,265,275,275,665,SBD,,
G,Thomas Lilley,M,33,Single-ply,Open,116.92,125,360,380,400,400,235,245,-255,245,340,355,367.5,367.5,1012.5,SBD,,
1,Matthew Smart,M,29,Raw,Open,104.68,110,,,,,,,,,220,-232.5,-240,220,220,D,,Yes
G,Campbell McLaren,M,24,Raw,Open,116.9,125,,,,,,,,,-295,320,330,330,330,D,,
G,Tom Atkins,M,32,Raw,Open,150.1,140+,,,,,,,,,330,365,-370,365,365,D,,
