Division,WeightClassKg,Place,Name,Team,BodyweightKg,Best3SquatKg,Best3BenchKg,Best3DeadliftKg,TotalKg,Equipment,Event,Sex,BirthDate
Boys,51.71,1,Kyson Lusane,Denison,51.35,140.61,81.65,124.74,347,Single-ply,SBD,M,
Boys,51.71,2,Raphael Chavez,Gainesville,51.71,113.4,61.23,113.4,288.03,Single-ply,SBD,M,
Boys,55.79,2,Ty Kirkbride,Denison,51.8,149.69,79.38,145.15,374.21,Single-ply,SBD,M,
Boys,55.79,3,Alexis Huerta,Gainesville,55.7,147.42,72.57,136.08,356.07,Single-ply,SBD,M,
Boys,59.87,1,Destin Warr,Callisburg,57.79,151.95,97.52,165.56,415.04,Single-ply,SBD,M,
Boys,59.87,2,Kaisei Coppinger,Whitesboro,57.61,124.74,65.77,142.88,333.39,Single-ply,SBD,M,
Boys,59.87,3,Jesus Labrada,Whitesboro,59.06,90.72,61.23,95.25,247.21,Single-ply,SBD,M,
Boys,59.87,DQ,Richard Manuel #2,Gainesville,58.69,70.31,45.36,79.38,,Single-ply,SBD,M,
Boys,67.13,1,Ignacio Salas,Whitesboro,61.96,208.65,127.01,197.31,532.97,Single-ply,SBD,M,
Boys,67.13,2,Jacob Smith,Whitesboro,66.13,183.7,113.4,201.85,498.95,Single-ply,SBD,M,
Boys,67.13,3,Alex Sustaita,Gainesville,67.04,176.9,88.45,170.1,435.45,Single-ply,SBD,M,
Boys,67.13,4,Alex Labrada,Whitesboro,63.14,161.03,95.25,165.56,421.84,Single-ply,SBD,M,
Boys,67.13,5,Javier Fraire,Gainesville,60.19,151.95,83.91,170.1,405.97,Single-ply,SBD,M,
Boys,67.13,6,Suede Wannamaker,Callisburg,61.87,117.93,70.31,129.27,317.51,Single-ply,SBD,M,
Boys,67.13,DQ,Micah Sharpe,Gainesville,64.86,129.27,79.38,136.08,,Single-ply,SBD,M,
Boys,74.84,1,Anthony Henry,Gainesville,71.4,192.78,113.4,204.12,510.29,Single-ply,SBD,M,
Boys,74.84,2,Clayton Moore,Callisburg,69.58,147.42,81.65,167.83,396.89,Single-ply,SBD,M,
Boys,74.84,3,Alan Bustos,Gainesville,68.4,136.08,61.23,124.74,322.05,Single-ply,SBD,M,
Boys,82.1,1,Chase Markum,Denison,78.02,142.88,97.52,145.15,385.55,Single-ply,SBD,M,
Boys,82.1,1,Yovanni Juarez,Gainesville,82.1,306.17,192.78,226.8,725.75,Single-ply,SBD,M,
Boys,82.1,2,Aaron Schaeffer,Denison,78.38,176.9,102.06,174.63,453.59,Single-ply,SBD,M,
Boys,82.1,3,Charles Burks,Gainesville,80.1,183.7,74.84,188.24,446.79,Single-ply,SBD,M,
Boys,82.1,4,Shelby Price,Callisburg,78.02,151.95,104.33,167.83,424.11,Single-ply,SBD,M,
Boys,82.1,5,Rowdy Jeffreys,Callisburg,82.1,124.74,77.11,106.59,308.44,Single-ply,SBD,M,
Boys,82.1,DQ,Jayce Morgan,Gainesville,80.83,233.6,136.08,197.31,,Single-ply,SBD,M,
Boys,89.81,1,Dwayne Wilson,Gainesville,84.37,278.96,142.88,217.72,639.57,Single-ply,SBD,M,
Boys,89.81,2,Mason Ford,Gainesville,87,217.72,170.1,229.06,616.89,Single-ply,SBD,M,
Boys,89.81,3,Bryce Johnson #6,Collinsville,89.27,158.76,97.52,154.22,410.5,Single-ply,SBD,M,
Boys,99.79,1,Jeremiah Velten,Whitesboro,92.9,204.12,97.52,235.87,537.51,Single-ply,SBD,M,
Boys,99.79,2,Jacob Castillo,Whitesboro,98.79,190.51,129.27,197.31,517.1,Single-ply,SBD,M,
Boys,99.79,3,Dennington Jacob,Callisburg,98.7,174.63,104.33,183.7,462.66,Single-ply,SBD,M,
Boys,99.79,4,Alessandro Contreras,Gainesville,95.25,181.44,102.06,158.76,442.25,Single-ply,SBD,M,
Boys,99.79,DQ,Braedon Schneider,Gainesville,98.88,242.67,129.27,197.31,,Single-ply,SBD,M,
Boys,99.79,DQ,Kyron Smith,Gainesville,95.8,215.46,83.91,183.7,,Single-ply,SBD,M,
Boys,109.77,1,Blake Boren,Callisburg,108.5,192.78,129.27,208.65,530.7,Single-ply,SBD,M,
Boys,109.77,2,Jacob Weir,Callisburg,101.15,183.7,120.2,183.7,487.61,Single-ply,SBD,M,
Boys,109.77,3,Nathan Orrick,Denison,107.77,163.29,113.4,195.04,471.74,Single-ply,SBD,M,
Boys,109.77,4,Kanyon Ives,Denison,106.78,183.7,68.04,158.76,410.5,Single-ply,SBD,M,
Boys,109.77,5,Caleb Aikens,Denison,101.6,131.54,79.38,113.4,324.32,Single-ply,SBD,M,
Boys,124.74,1,Conner Markham,Whitesboro,111.04,192.78,117.93,192.78,503.49,Single-ply,SBD,M,
Boys,124.74,2,Diesel Wannamaker,Callisburg,115.58,142.88,79.38,163.29,385.55,Single-ply,SBD,M,
Boys,139.71,DQ,Wade Graves,Whitesboro,134.08,208.65,172.37,183.7,,Single-ply,SBD,M,
Boys,139.71+,1,Gavin Emerson,Gainesville,142.43,265.35,206.38,192.78,664.51,Single-ply,SBD,M,
Boys,139.71+,2,Cooper Emerson,Gainesville,150.14,226.8,156.49,192.78,576.06,Single-ply,SBD,M,
