Division,WeightClassKg,Place,Name,Team,BodyweightKg,Best3SquatKg,Best3BenchKg,Best3DeadliftKg,TotalKg,Equipment,Event,Sex
Boys,51.71,1,Ethan Payne #2,Bonham,49.08,104.33,43.09,113.4,260.82,Single-ply,SBD,M
Boys,51.71,2,Joseph Lewis,Bells,51.71,65.77,54.43,90.72,210.92,Single-ply,SBD,M
Boys,51.71,3,Matt Howard #2,Celina,47.45,61.23,45.36,90.72,197.31,Single-ply,SBD,M
Boys,51.71,4,Seth McGehee,Bells,47.72,70.31,,113.4,183.7,Single-ply,SD,M
Boys,51.71,5,Lj Byork,Gainesville,44.36,40.82,22.68,79.38,142.88,Single-ply,SBD,M
Boys,59.87,1,Ozawaldo Medina,Gainesville,55.88,124.74,68.04,127.01,319.78,Single-ply,SBD,M
Boys,55.79,2,Colten Lillard,Gainesville,55.7,95.25,49.9,124.74,269.89,Single-ply,SBD,M
Boys,55.79,3,Katz Higa,Sanger,54.88,92.99,54.43,102.06,249.48,Single-ply,SBD,M
Boys,59.87,1,Erik Torres,Celina,59.51,154.22,124.74,183.7,462.66,Single-ply,SBD,M
Boys,59.87,2,Fernando Salas,Farmersville,58.88,136.08,92.99,158.76,387.82,Single-ply,SBD,M
Boys,59.87,3,Cole Owens,Bonham,59.87,147.42,79.38,151.95,378.75,Single-ply,SBD,M
Boys,59.87,4,Jacob Grubisa,Farmersville,57.06,147.42,61.23,158.76,367.41,Single-ply,SBD,M
Boys,59.87,5,Lane Simpson,Bonham,59.69,124.74,79.38,158.76,362.87,Single-ply,SBD,M
Boys,59.87,6,Alex Montoya,Blue Ridge,59.51,147.42,70.31,142.88,360.61,Single-ply,SBD,M
Boys,59.87,7,Daniel Scott #3,Anna,58.51,133.81,77.11,136.08,347,Single-ply,SBD,M
Boys,59.87,8,Dalton Hill,Van Alstyne,59.15,113.4,74.84,140.61,328.85,Single-ply,SBD,M
Boys,59.87,9,Jonathan Harris,Whitesboro,58.06,104.33,70.31,149.69,324.32,Single-ply,SBD,M
Boys,59.87,10,Zach Wright,Van Alstyne,58.24,115.67,68.04,117.93,301.64,Single-ply,SBD,M
Boys,59.87,11,Seth Flusche,Muenster,57.97,108.86,63.5,115.67,288.03,Single-ply,SBD,M
Boys,67.13,12,Zach Franzeo,Sadler S & S Cons,60.06,104.33,54.43,124.74,283.5,Single-ply,SBD,M
Boys,59.87,13,Bruce Chartier,Bells,59.06,106.59,52.16,115.67,274.42,Single-ply,SBD,M
Boys,59.87,14,Chris McKinney,Decatur,58.69,106.59,70.31,88.45,265.35,Single-ply,SBD,M
Boys,59.87,15,Chantz Cochran,Decatur,59.06,83.91,63.5,115.67,263.08,Single-ply,SBD,M
Boys,59.87,16,Adrian Tostado,Sanger,56.7,92.99,52.16,99.79,244.94,Single-ply,SBD,M
Boys,59.87,17,Jacob Cunliffe,Bells,56.25,95.25,52.16,90.72,238.14,Single-ply,SBD,M
Boys,59.87,18,Ely Strickland,Celina,58.6,68.04,56.7,90.72,215.46,Single-ply,SBD,M
Boys,67.13,1,Grant Carter,Sanger,65.14,170.1,117.93,176.9,464.93,Single-ply,SBD,M
Boys,67.13,2,Leo Sustatia,Gainesville,67.04,147.42,74.84,170.1,392.36,Single-ply,SBD,M
Boys,67.13,3,Cesar Saucedo,Gainesville,60.33,136.08,68.04,149.69,353.8,Single-ply,SBD,M
Boys,67.13,4,Ryan Slagle,Pottsboro,64.77,136.08,79.38,136.08,351.53,Single-ply,SBD,M
Boys,67.13,5,Justin Taylor,Decatur,63.78,122.47,88.45,124.74,335.66,Single-ply,SBD,M
Boys,67.13,6,Bryce Welsh,Melissa,65.95,127.01,81.65,124.74,333.39,Single-ply,SBD,M
Boys,67.13,7,Gavin Brown,Sanger,66.13,122.47,72.57,136.08,331.12,Single-ply,SBD,M
Boys,67.13,8,Charlie Martinez,Farmersville,61.33,111.13,81.65,136.08,328.85,Single-ply,SBD,M
Boys,74.84,9,Tyler Walthall,Melissa,67.36,104.33,63.5,111.13,278.96,Single-ply,SBD,M
Boys,67.13,10,Carson Cheaney,Muenster,67.13,108.86,58.97,108.86,276.69,Single-ply,SBD,M
Boys,67.13,11,Wade Rolen,Bells,66.13,90.72,52.16,120.2,263.08,Single-ply,SBD,M
Boys,67.13,12,Morgan Rigsby,Callisburg,63.5,61.23,104.33,,165.56,Single-ply,SB,M
Boys,67.13,DQ,Sergio Lopez,Bells,65.59,124.74,,,,Single-ply,SB,M
Boys,67.13,DQ,Stelson McGrew,Muenster,63.41,,,,,Single-ply,SB,M
Boys,74.84,1,Ty Slaughter,Anna,72.57,240.4,147.42,235.87,623.69,Single-ply,SBD,M
Boys,74.84,2,Joaquin Lopez,Howe,73.03,204.12,138.35,215.46,557.92,Single-ply,SBD,M
Boys,74.84,3,Antonio Barragan,Anna,72.21,172.37,113.4,181.44,467.2,Single-ply,SBD,M
Boys,74.84,4,Tristan Coglon,Bells,70.03,156.49,104.33,192.78,453.59,Single-ply,SBD,M
Boys,74.84,5,Rodrigo Castillo,Farmersville,68.58,149.69,74.84,181.44,405.97,Single-ply,SBD,M
Boys,74.84,6,Evan Wilson,Bonham,72.57,147.42,81.65,176.9,405.97,Single-ply,SBD,M
Boys,74.84,7,Joseph Villanueva,Blue Ridge,72.94,147.42,70.31,151.95,369.68,Single-ply,SBD,M
Boys,74.84,8,Garrett Douglas,Van Alstyne,71.4,127.01,77.11,158.76,362.87,Single-ply,SBD,M
Boys,74.84,9,Daniel Roberts,Pottsboro,70.67,129.27,88.45,136.08,353.8,Single-ply,SBD,M
Boys,74.84,10,Noah Morris,Anna,74.48,129.27,68.04,156.49,353.8,Single-ply,SBD,M
Boys,74.84,11,Austin Ballard,Bonham,68.04,140.61,65.77,142.88,349.27,Single-ply,SBD,M
Boys,74.84,12,Frank Castorena,Collinsville,68.22,131.54,65.77,149.69,347,Single-ply,SBD,M
Boys,74.84,13,Christan Hernandez,Callisburg,73.66,120.2,74.84,151.95,347,Single-ply,SBD,M
Boys,74.84,14,Eric de la Cruz,Pottsboro,68.13,113.4,83.91,136.08,333.39,Single-ply,SBD,M
Boys,74.84,15,Kagen Dangylmeyer,Muenster,71.03,120.2,72.57,127.01,319.78,Single-ply,SBD,M
Boys,74.84,16,Colby Coley,Celina,67.49,90.72,63.5,142.88,297.1,Single-ply,SBD,M
Boys,74.84,17,Bailey McCooy,Muenster,74.84,117.93,63.5,113.4,294.84,Single-ply,SBD,M
Boys,74.84,18,Matt Kinerd,Anna,68.22,115.67,74.84,99.79,290.3,Single-ply,SBD,M
Boys,74.84,19,Will Duke,Celina,69.67,90.72,65.77,115.67,272.16,Single-ply,SBD,M
Boys,74.84,20,Lattigo Mantooth,Sadler S & S Cons,70.76,106.59,79.38,81.65,267.62,Single-ply,SBD,M
Boys,74.84,21,Dylan Hall #2,Bells,69.85,72.57,54.43,99.79,226.8,Single-ply,SBD,M
Boys,74.84,DQ,Dean Waltersheid,Muenster,73.57,122.47,,,,Single-ply,SBD,M
Boys,74.84,DQ,Che Nipper,Pottsboro,69.04,90.72,,,,Single-ply,SBD,M
Boys,74.84,DQ,Andrew Griffin,Howe,74.16,156.49,,,,Single-ply,SBD,M
Boys,82.1,1,Tanner Johnson,Whitesboro,75.84,238.14,108.86,226.8,573.79,Single-ply,SBD,M
Boys,82.1,2,Jake Haker,Van Alstyne,79.74,204.12,136.08,188.24,528.44,Single-ply,SBD,M
Boys,82.1,3,Jordan Fortner,Melissa,76.93,174.63,115.67,226.8,517.1,Single-ply,SBD,M
Boys,82.1,4,Brandon Murphey,Whitesboro,81.56,183.7,95.25,176.9,455.86,Single-ply,SBD,M
Boys,82.1,5,Wyatt Maher,Sadler S & S Cons,77.75,145.15,88.45,176.9,410.5,Single-ply,SBD,M
Boys,82.1,6,Robert Phillips,Sanger,76.93,142.88,111.13,154.22,408.23,Single-ply,SBD,M
Boys,82.1,7,Trevor Buckaloo,Bonham,82.01,158.76,86.18,158.76,403.7,Single-ply,SBD,M
Boys,82.1,8,Reece Miller,Bonham,81.65,149.69,92.99,158.76,401.43,Single-ply,SBD,M
Boys,82.1,9,Alec Kyle,Anna,80.2,138.35,95.25,151.95,385.55,Single-ply,SBD,M
Boys,82.1,10,Marcus Thomas,Decatur,76.48,122.47,83.91,170.1,376.48,Single-ply,SBD,M
Boys,82.1,11,Hearth Thomas,Van Alstyne,77.47,142.88,95.25,136.08,374.21,Single-ply,SBD,M
Boys,82.1,12,Blake Williams,Collinsville,81.83,95.25,68.04,147.42,310.71,Single-ply,SBD,M
Boys,82.1,13,Jace Greening,Celina,78.74,92.99,72.57,122.47,288.03,Single-ply,SBD,M
Boys,82.1,14,Dakota Barney,Decatur,77.02,70.31,52.16,108.86,231.33,Single-ply,SBD,M
Boys,82.1,DQ,Parker Johnson,Collinsville,76.93,,,,,Single-ply,SBD,M
Boys,82.1,DQ,Cody McKamy,Whitesboro,80.01,163.29,,208.65,,Single-ply,SBD,M
Boys,82.1,DQ,Jake Galbreath,Sanger,78.74,,,,,Single-ply,SBD,M
Boys,89.81,1,Chris de la Cruz,Pottsboro,89.81,197.31,124.74,197.31,519.36,Single-ply,SBD,M
Boys,89.81,2,Drew Martin,Collinsville,87.45,156.49,97.52,185.97,439.98,Single-ply,SBD,M
Boys,89.81,3,Jeremy Mansur,Anna,89.54,149.69,117.93,172.37,439.98,Single-ply,SBD,M
Boys,89.81,4,Jesse De Leon,Blue Ridge,86.09,158.76,97.52,174.63,430.91,Single-ply,SBD,M
Boys,89.81,5,Ashton McDaniel,Pottsboro,88.9,136.08,108.86,161.03,405.97,Single-ply,SBD,M
Boys,89.81,6,Jose Mata,Callisburg,84.91,151.95,83.91,161.03,396.89,Single-ply,SBD,M
Boys,89.81,7,Damon Lewis,Decatur,87.45,140.61,83.91,170.1,394.63,Single-ply,SBD,M
Boys,89.81,8,Nick Osbourne,Pottsboro,85.91,136.08,90.72,142.88,369.68,Single-ply,SBD,M
Boys,89.81,9,Nick Robert,Howe,83.28,120.2,86.18,158.76,365.14,Single-ply,SBD,M
Boys,89.81,10,Blake Lerond,Bells,88.72,136.08,72.57,156.49,365.14,Single-ply,SBD,M
Boys,89.81,11,Kevin White,Decatur,88.63,120.2,81.65,147.42,349.27,Single-ply,SBD,M
Boys,89.81,12,Chris Tracy,Anna,84.19,115.67,95.25,136.08,347,Single-ply,SBD,M
Boys,89.81,13,Alex Nieto,Decatur,84.91,120.2,68.04,136.08,324.32,Single-ply,SBD,M
Boys,99.79,1,Ruben Hernandez #1,Gainesville,96.07,204.12,129.27,192.78,526.17,Single-ply,SBD,M
Boys,99.79,2,Jonathan Havis,Sanger,96.52,195.04,127.01,183.7,505.76,Single-ply,SBD,M
Boys,109.77,3,Cody Holaway,Decatur,99.88,179.17,99.79,179.17,458.13,Single-ply,SBD,M
Boys,99.79,4,Zach Walton,Pottsboro,96.89,170.1,104.33,181.44,455.86,Single-ply,SBD,M
Boys,99.79,5,Jeran Lewis,Anna,99.7,145.15,99.79,174.63,419.57,Single-ply,SBD,M
Boys,99.79,6,Daniel Paque,Celina,98.7,158.76,115.67,142.88,417.3,Single-ply,SBD,M
Boys,99.79,7,Dylan Pruitt,Van Alstyne,97.25,145.15,81.65,181.44,408.23,Single-ply,SBD,M
Boys,99.79,8,Alex Rangel,Celina,97.79,174.63,92.99,131.54,399.16,Single-ply,SBD,M
Boys,99.79,9,Connor Mooney,Decatur,92.99,147.42,88.45,156.49,392.36,Single-ply,SBD,M
Boys,99.79,10,Justin Callahan,Decatur,95.16,142.88,90.72,158.76,392.36,Single-ply,SBD,M
Boys,99.79,11,Tyler Pickett,Howe,95.62,136.08,90.72,151.95,378.75,Single-ply,SBD,M
Boys,109.77,12,Landon Collum,Van Alstyne,99.97,131.54,83.91,163.29,378.75,Single-ply,SBD,M
Boys,99.79,13,Jaden Powell,Bells,93.8,113.4,102.06,154.22,369.68,Single-ply,SBD,M
Boys,99.79,14,Kimball Daniels,Van Alstyne,96.52,120.2,95.25,136.08,351.53,Single-ply,SBD,M
Boys,99.79,15,Evin Hughes,Bells,92.44,111.13,79.38,147.42,337.93,Single-ply,SBD,M
Boys,99.79,16,Eli Shinn,Farmersville,95.62,102.06,61.23,158.76,322.05,Single-ply,SBD,M
Boys,99.79,17,Lane Theis,Farmersville,95.8,124.74,61.23,136.08,322.05,Single-ply,SBD,M
Boys,109.77,1,Garrett Grayson,Sanger,106.5,226.8,156.49,226.8,610.08,Single-ply,SBD,M
Boys,109.77,2,Ryan Langley,Sanger,108.23,238.14,142.88,195.04,576.06,Single-ply,SBD,M
Boys,124.74,3,Ethan Lawson,Sadler S & S Cons,109.86,215.46,133.81,215.46,564.72,Single-ply,SBD,M
Boys,109.77,4,Calin Hardin,Gainesville,105.05,215.46,117.93,215.46,548.85,Single-ply,SBD,M
Boys,109.77,5,Brandon Miller,Bonham,106.14,183.7,99.79,172.37,455.86,Single-ply,SBD,M
Boys,109.77,6,Max Castillo,Melissa,106.5,158.76,108.86,165.56,433.18,Single-ply,SBD,M
Boys,109.77,7,Tristan Torrez,Sadler S & S Cons,102.15,149.69,90.72,158.76,399.16,Single-ply,SBD,M
Boys,109.77,8,Reid Sauceman,Collinsville,102.33,156.49,77.11,158.76,392.36,Single-ply,SBD,M
Boys,109.77,9,Carlos Montoya,Whitesboro,103.15,138.35,88.45,140.61,367.41,Single-ply,SBD,M
Boys,109.77,10,Dillon Garcia,Anna,104.78,117.93,77.11,136.08,331.12,Single-ply,SBD,M
Boys,109.77,DQ,Brian Monroy,Gainesville,103.42,,,,,Single-ply,SBD,M
Boys,124.74,1,Tristan Robinson,Whitesboro,110.9,217.72,142.88,217.72,578.33,Single-ply,SBD,M
Boys,124.74,2,Connor Strocher,Pottsboro,115.94,215.46,124.74,217.72,557.92,Single-ply,SBD,M
Boys,124.74,3,Ryan Folk,Van Alstyne,112.67,208.65,131.54,215.46,555.65,Single-ply,SBD,M
Boys,124.74,4,Kayl Powers,Collinsville,111.13,197.31,102.06,238.14,537.51,Single-ply,SBD,M
Boys,124.74,5,Russell Carey,Whitesboro,115.58,197.31,113.4,195.04,505.76,Single-ply,SBD,M
Boys,124.74,6,Alfonso Viramontes,Melissa,115.3,147.42,95.25,170.1,412.77,Single-ply,SBD,M
Boys,124.74,7,Ben Ordaz,Whitesboro,122.11,113.4,90.72,151.95,356.07,Single-ply,SBD,M
Boys,124.74,8,Austin Jennings,Pottsboro,112.76,170.1,,161.03,331.12,Single-ply,SD,M
Boys,124.74,9,Randall Starr,Bonham,115.76,113.4,65.77,106.59,285.76,Single-ply,SBD,M
Boys,124.74+,1,Manny Rodriguez,Gainesville,129,272.16,136.08,233.6,641.83,Single-ply,SBD,M
Boys,124.74+,2,Kasey Misenheimer,Whitesboro,129.91,247.21,149.69,233.6,630.49,Single-ply,SBD,M
Boys,124.74+,3,Will Brogdon,Van Alstyne,132.72,235.87,136.08,235.87,607.81,Single-ply,SBD,M
Boys,124.74+,4,Damon Lippert,Sanger,126.73,192.78,138.35,181.44,512.56,Single-ply,SBD,M
Boys,124.74+,5,Max Gafford,Blue Ridge,155.49,192.78,,204.12,396.89,Single-ply,SD,M
Boys,124.74+,DQ,Eric Deleon,Gainesville,140.25,,,,,Single-ply,SD,M
