Division,WeightClassKg,Place,Name,Team,BodyweightKg,Best3SquatKg,Best3BenchKg,Best3DeadliftKg,TotalKg,Equipment,Event,Sex
Boys,51.71,1,Lt Flournoy,Mineola,49.08,99.79,52.16,120.2,272.16,Single-ply,SBD,M
Boys,55.79,2,Tylor Chandler,Crandall,51.89,102.06,43.09,127.01,272.16,Single-ply,SBD,M
Boys,51.71,3,Justin Dowdy,Wills Point,45.18,95.25,54.43,108.86,258.55,Single-ply,SBD,M
Boys,51.71,4,Noah Richardson,Van,51.26,86.18,52.16,86.18,224.53,Single-ply,SBD,M
Boys,51.71,5,Cody Cade,Brownsboro,47.72,68.04,45.36,90.72,204.12,Single-ply,SBD,M
Boys,51.71,DQ,Miguel Hernandez,Emory Rains,49.62,,54.43,,,Single-ply,SBD,M
Boys,55.79,1,Harrison Howell,Mineola,55.52,131.54,83.91,147.42,362.87,Single-ply,SBD,M
Boys,55.79,2,Tyler Watson,Crandall,54.43,106.59,77.11,117.93,301.64,Single-ply,SBD,M
Boys,55.79,3,Stephen Pham,Sunnyvale,53.34,102.06,58.97,136.08,297.1,Single-ply,SBD,M
Boys,55.79,4,Christian Fisk,Longview Pine Tree,54.43,111.13,63.5,117.93,292.57,Single-ply,SBD,M
Boys,59.87,5,Nick Wunsch,Wills Point,56.02,117.93,68.04,106.59,292.57,Single-ply,SBD,M
Boys,55.79,6,James Page,Van,55.34,108.86,58.97,122.47,290.3,Single-ply,SBD,M
Boys,55.79,7,Thein Tran,Sunnyvale,55.7,111.13,58.97,111.13,281.23,Single-ply,SBD,M
Boys,55.79,8,Samuel Odom,Brownsboro,53.71,102.06,56.7,97.52,256.28,Single-ply,SBD,M
Boys,55.79,DQ,Preston Williams,Mineola,55.7,108.86,,117.93,,Single-ply,SBD,M
Boys,59.87,1,Brady Rose,Mineola,59.6,172.37,86.18,181.44,439.98,Single-ply,SBD,M
Boys,67.13,2,Juan Mendez,Emory Rains,60.06,142.88,90.72,156.49,390.09,Single-ply,SBD,M
Boys,59.87,3,Ryan Moore,Oakwood,57.42,104.33,65.77,113.4,283.5,Single-ply,SBD,M
Boys,59.87,4,Morgan Breaux,Emory Rains,57.97,102.06,52.16,111.13,265.35,Single-ply,SBD,M
Boys,67.13,DQ,Dakota Hobbs,Brownsboro,59.96,111.13,74.84,,,Single-ply,SBD,M
Boys,67.13,1,Jesse Hudson #1,Emory Rains,65.32,172.37,88.45,190.51,451.32,Single-ply,SBD,M
Boys,67.13,2,Anthony Offord,Crandall,65.5,140.61,90.72,192.78,424.11,Single-ply,SBD,M
Boys,67.13,3,Dustin Bendall,Brownsboro,65.5,154.22,90.72,176.9,421.84,Single-ply,SBD,M
Boys,67.13,4,Juan Lopez,Mineola,65.77,138.35,95.25,158.76,392.36,Single-ply,SBD,M
Boys,67.13,5,Justin Bledsoe,Longview Pine Tree,64.05,124.74,86.18,172.37,383.29,Single-ply,SBD,M
Boys,67.13,6,Trevor Bell,Sunnyvale,66.77,161.03,70.31,151.95,383.29,Single-ply,SBD,M
Boys,67.13,7,Brett Martin,Troup,65.68,138.35,74.84,167.83,381.02,Single-ply,SBD,M
Boys,67.13,8,Chris Pendergrass,Grand Saline,64.05,120.2,92.99,156.49,369.68,Single-ply,SBD,M
Boys,67.13,9,Taylor Gonzales,Crandall,65.32,127.01,88.45,149.69,365.14,Single-ply,SBD,M
Boys,67.13,10,Thomas Aguillar,Emory Rains,65.5,138.35,68.04,154.22,360.61,Single-ply,SBD,M
Boys,67.13,11,Johnathan Colteaux,Longview Pine Tree,64.86,106.59,81.65,151.95,340.19,Single-ply,SBD,M
Boys,67.13,12,Alex Perez,Wills Point,66.86,115.67,72.57,145.15,333.39,Single-ply,SBD,M
Boys,67.13,13,Joseph Parker,Wills Point,61.69,129.27,79.38,117.93,326.59,Single-ply,SBD,M
Boys,67.13,14,Holdin Godwin,Emory Rains,65.59,122.47,65.77,133.81,322.05,Single-ply,SBD,M
Boys,67.13,15,Marshall Pettway,Sunnyvale,60.78,111.13,68.04,117.93,297.1,Single-ply,SBD,M
Boys,67.13,16,Joey Gelske,Oakwood,65.41,92.99,77.11,102.06,272.16,Single-ply,SBD,M
Boys,67.13,17,Dylan Hargrove,Mineola,63.32,74.84,52.16,136.08,263.08,Single-ply,SBD,M
Boys,67.13,18,Joe Kossack,Wills Point,67.13,83.91,49.9,111.13,244.94,Single-ply,SBD,M
Boys,74.84,1,Richard Tilley,Crandall,74.57,195.04,90.72,219.99,505.76,Single-ply,SBD,M
Boys,82.1,2,Gannon Brown,Emory Rains,75.02,170.1,136.08,183.7,489.88,Single-ply,SBD,M
Boys,74.84,3,Tino Elias,Mineola,70.03,183.7,92.99,197.31,474,Single-ply,SBD,M
Boys,74.84,4,Bryan Tucker,Wills Point,74.21,142.88,124.74,158.76,426.38,Single-ply,SBD,M
Boys,74.84,5,Christian Darter,Emory Rains,74.84,165.56,83.91,163.29,412.77,Single-ply,SBD,M
Boys,74.84,6,Blake Narrell,Troup,71.49,140.61,97.52,156.49,394.63,Single-ply,SBD,M
Boys,74.84,7,Tristan Bussell,Brownsboro,74.84,147.42,81.65,145.15,374.21,Single-ply,SBD,M
Boys,74.84,8,Kelvin Fitzpatrick,Longview Pine Tree,68.95,140.61,81.65,149.69,371.95,Single-ply,SBD,M
Boys,82.1,9,Mack Malone,Wills Point,75.07,131.54,92.99,138.35,362.87,Single-ply,SBD,M
Boys,74.84,10,Brett Mallon,Crandall,74.84,136.08,70.31,151.95,358.34,Single-ply,SBD,M
Boys,74.84,11,Cruz Renteria,Longview Pine Tree,68.13,124.74,65.77,136.08,326.59,Single-ply,SBD,M
Boys,74.84,12,LeMarcus Newsome,Oakwood,70.94,117.93,77.11,122.47,317.51,Single-ply,SBD,M
Boys,74.84,13,Cameron Leath,Wills Point,74.03,113.4,70.31,127.01,310.71,Single-ply,SBD,M
Boys,74.84,DQ,Abdul Khalaf,Sunnyvale,71.94,174.63,,176.9,,Single-ply,SBD,M
Boys,74.84,DQ,Shane Burge,Mineola,74.3,,81.65,145.15,,Single-ply,SBD,M
Boys,82.1,1,Ruben Sanchez,Mineola,81.37,231.33,151.95,242.67,625.96,Single-ply,SBD,M
Boys,82.1,2,Jon Hines,Emory Rains,80.01,206.38,113.4,197.31,517.1,Single-ply,SBD,M
Boys,82.1,3,Austin Musser,Mineola,80.56,213.19,120.2,183.7,517.1,Single-ply,SBD,M
Boys,82.1,4,Nate Banks,Crandall,80.92,197.31,106.59,190.51,494.42,Single-ply,SBD,M
Boys,82.1,5,Louis Collins #2,Oakwood,81.65,183.7,122.47,181.44,487.61,Single-ply,SBD,M
Boys,82.1,6,Michael Jones #13,Emory Rains,78.02,170.1,92.99,215.46,478.54,Single-ply,SBD,M
Boys,82.1,7,Miles Spencer,Brownsboro,80.38,174.63,120.2,181.44,476.27,Single-ply,SBD,M
Boys,82.1,8,Brady Wilbanks,Longview Pine Tree,80.56,163.29,136.08,156.49,455.86,Single-ply,SBD,M
Boys,82.1,9,Grant Russell,Emory Rains,80.1,147.42,92.99,204.12,444.52,Single-ply,SBD,M
Boys,82.1,10,Ryan Moss,Sunnyvale,81.56,181.44,86.18,176.9,444.52,Single-ply,SBD,M
Boys,82.1,11,Brandon Farmer,Van,82.1,183.7,106.59,149.69,439.98,Single-ply,SBD,M
Boys,82.1,12,Dylan Roberts,Crandall,76.66,124.74,106.59,170.1,401.43,Single-ply,SBD,M
Boys,82.1,13,Kris Mims,Wills Point,81.1,131.54,79.38,145.15,356.07,Single-ply,SBD,M
Boys,82.1,14,Cameron Litchfield,Oakwood,75.66,136.08,74.84,120.2,331.12,Single-ply,SBD,M
Boys,82.1,DQ,Odessa Sanchez,Emory Rains,77.66,,,,,Single-ply,SBD,M
Boys,82.1,DQ,Ethan Molnari,Troup,78.29,142.88,,129.27,,Single-ply,SBD,M
Boys,89.81,1,Luis Alvarez,Crandall,86.73,195.04,129.27,183.7,508.02,Single-ply,SBD,M
Boys,89.81,2,Anthony Adkins,Troup,88.68,192.78,90.72,192.78,476.27,Single-ply,SBD,M
Boys,89.81,3,Christian Brummett,Oakwood,83.91,183.7,90.72,188.24,462.66,Single-ply,SBD,M
Boys,89.81,4,Cory Toombs,Longview Pine Tree,88.99,161.03,99.79,183.7,444.52,Single-ply,SBD,M
Boys,89.81,5,Daniel Bowman,Van,84.59,158.76,113.4,167.83,439.98,Single-ply,SBD,M
Boys,89.81,6,Chris Furgason,Longview Pine Tree,87.27,176.9,92.99,167.83,437.72,Single-ply,SBD,M
Boys,89.81,DQ,Trevor Kenner,Mineola,87,138.35,,176.9,,Single-ply,SBD,M
Boys,99.79,1,Devon Burris,Crandall,95.16,199.58,140.61,219.99,560.19,Single-ply,SBD,M
Boys,99.79,2,Chris Chadwick,Longview Pine Tree,90.54,224.53,122.47,188.24,535.24,Single-ply,SBD,M
Boys,99.79,3,Gustavo Solis,Longview Pine Tree,99.34,170.1,113.4,204.12,487.61,Single-ply,SBD,M
Boys,99.79,4,Swaide Houston,Brownsboro,97.89,156.49,97.52,188.24,442.25,Single-ply,SBD,M
Boys,99.79,5,Robert Burden,Oakwood,95.35,172.37,104.33,163.29,439.98,Single-ply,SBD,M
Boys,99.79,6,Nathan Lewis,Wills Point,90.72,188.24,99.79,145.15,433.18,Single-ply,SBD,M
Boys,99.79,7,Jacob Smith,Longview Pine Tree,93.53,145.15,106.59,170.1,421.84,Single-ply,SBD,M
Boys,99.79,8,Michael Sheveland,Sunnyvale,99.61,158.76,90.72,163.29,412.77,Single-ply,SBD,M
Boys,99.79,9,Ryan Warren,Wills Point,93.53,149.69,74.84,127.01,351.53,Single-ply,SBD,M
Boys,99.79,DQ,Gordon Walters,Longview Pine Tree,94.53,,72.57,133.81,,Single-ply,SBD,M
Boys,109.77,1,Eddie Calico,Longview Pine Tree,107.05,285.76,199.58,272.16,757.5,Single-ply,SBD,M
Boys,109.77,2,Justin Hopkins,Van,107.95,222.26,129.27,183.7,535.24,Single-ply,SBD,M
Boys,109.77,3,Joel Palma,Grand Saline,102.97,208.65,129.27,190.51,528.44,Single-ply,SBD,M
Boys,109.77,4,Justin Miller,Wills Point,104.05,208.65,111.13,179.17,498.95,Single-ply,SBD,M
Boys,109.77,5,Joey Duncan,Brownsboro,107.41,181.44,122.47,188.24,492.15,Single-ply,SBD,M
Boys,109.77,6,Cody Rowland,Wills Point,101.7,172.37,102.06,179.17,453.59,Single-ply,SBD,M
Boys,109.77,7,Rusty Adair,Wills Point,105.6,149.69,117.93,172.37,439.98,Single-ply,SBD,M
Boys,109.77,8,Mohammed Al-Rousan,Sunnyvale,101.97,170.1,108.86,158.76,437.72,Single-ply,SBD,M
Boys,109.77,9,Darean Morse,Brownsboro,101.42,156.49,106.59,167.83,430.91,Single-ply,SBD,M
Boys,109.77,10,Seth Loftin,Van,102.51,131.54,102.06,154.22,387.82,Single-ply,SBD,M
Boys,109.77,11,Jesus Sefuentes,Longview Pine Tree,104.87,142.88,81.65,113.4,337.93,Single-ply,SBD,M
Boys,109.77,12,Brady Burleson,Brownsboro,109.77,206.38,120.2,,326.59,Single-ply,SB,M
Boys,124.74,1,Tristen Walsworth,Troup,111.4,242.67,147.42,219.99,610.08,Single-ply,SBD,M
Boys,124.74,2,Tavo Lemus,Van,114.76,215.46,140.61,176.9,532.97,Single-ply,SBD,M
Boys,124.74,3,William Mitchell,Longview Pine Tree,110.31,215.46,117.93,185.97,519.36,Single-ply,SBD,M
Boys,124.74,4,Mustafa Rabah,Sunnyvale,119.93,201.85,104.33,201.85,508.02,Single-ply,SBD,M
Boys,124.74,5,John Brown #9,Wills Point,122.42,183.7,104.33,174.63,462.66,Single-ply,SBD,M
Boys,124.74,6,Vaughan Thompson,Wills Point,110.59,158.76,104.33,140.61,403.7,Single-ply,SBD,M
Boys,124.74,DQ,Tj Talashek,Sunnyvale,120.2,,,,,Single-ply,SBD,M
Boys,124.74,DQ,Andrew Lee,Longview Pine Tree,114.76,,,,,Single-ply,SBD,M
Boys,124.74,DQ,Casey Hargrove,Emory Rains,115.58,,140.61,219.99,,Single-ply,SBD,M
Boys,124.74+,1,Jonathan Northcutt,Emory Rains,131.36,260.82,172.37,249.48,682.66,Single-ply,SBD,M
Boys,124.74+,2,Andre McKissack,Crandall,135.9,215.46,127.01,231.33,573.79,Single-ply,SBD,M
Boys,124.74+,3,Juan Gomez,Brownsboro,126.55,204.12,117.93,204.12,526.17,Single-ply,SBD,M
Boys,124.74+,4,Dakota Hernandez,Emory Rains,128.19,165.56,74.84,176.9,417.3,Single-ply,SBD,M
Boys,124.74+,5,Jesse Luna,Wills Point,133.45,154.22,79.38,151.95,385.55,Single-ply,SBD,M
Boys,124.74+,DQ,D'Zavier Harris,Troup,130.73,,,,,Single-ply,SBD,M
