Place,Name,Division,Country,BodyweightKg,Squat1Kg,Squat2Kg,Squat3Kg,Best3SquatKg,Squat4Kg,Bench1Kg,Bench2Kg,Bench3Kg,Best3BenchKg,Bench4Kg,Deadlift1Kg,Deadlift2Kg,Deadlift3Kg,Best3DeadliftKg,Deadlift4Kg,TotalKg,WeightClassKg,Sex,BirthYear,Equipment,Event
1,Ren Yamashita,Juniors 20-23,USA,51.8,125,137.5,145,145,,80,-87.5,87.5,87.5,,125,137.5,142.5,142.5,,375,52,F,1989,Single-ply,SBD
1,Becky Rich,Open,USA,55.9,120,125,-130,125,,85,90,-95,90,,135,145,-150,145,,360,56,F,1981,Single-ply,SBD
1,Suzanne Hedman,Masters 45-49,USA,55.4,115,117.5,125,125,130,82.5,-87.5,-87.5,82.5,,132.5,142.5,147.5,147.5,,355,56,F,1960,Single-ply,SBD
1,Bonnie Aerts,Masters 50-54,USA,52.5,50,,,50,,60,-65,-65,60,,112.5,125,130.5,130.5,-136.5,240.5,56,F,1958,Single-ply,SBD
1,Sabra Lucchesi-Callahan,Masters 50-54,USA,56.2,110,115,120,120,,-92.5,93,-95,93,,110,120,-125.5,120,,333,60,F,1955,Single-ply,SBD
1,Tanja van Huizen,Juniors 20-23,Netherlands,62.9,135,145,155,155,,70,80,85,85,90,125,135,-142.5,135,,375,67.5,F,1988,Single-ply,SBD
1,Angela McNamara,Open,Ireland,65.1,-175,175,-180,175,,85,90,92.5,92.5,95,140,160,180,180,-190,447.5,67.5,F,1973,Single-ply,SBD
2,Martha Rodriguez,Open,Mexico,62.9,120,130,140,140,,70,75,80,80,,130,140,-147.5,140,,360,67.5,F,1978,Single-ply,SBD
1,Gayle Arrowood,Masters 45-49,USA,65.8,75,80,87.5,87.5,,52.5,57.5,-60,57.5,,95,102.5,107.5,107.5,,252.5,67.5,F,1960,Single-ply,SBD
1,Liz Freel,Open,USA,70.8,177.5,190,200,200,,127.5,137.5,150,150,,190,205,215,215,220,565,75,F,1975,Single-ply,SBD
1,Gia Blackwell,Masters 45-49,USA,73,147.5,167.5,175,175,,-100,102.5,-107.5,102.5,,137.5,150,-160,150,,427.5,75,F,1960,Single-ply,SBD
1,Nicolai Stern,Open,USA,81.1,-205,-217.5,217.5,217.5,,117.5,125,-130,125,,190,207.5,-222.5,207.5,,550,82.5,F,1967,Single-ply,SBD
1,Zhalynn Helmick,Masters 40-44,USA,78.3,60,77.5,80,80,,30,35,-40,35,,77.5,100,102.5,102.5,,217.5,82.5,F,1967,Single-ply,SBD
1,Tanya Reed,Masters 45-49,USA,79.4,167.5,175,182.5,182.5,,137.5,140,-142.5,140,,187.5,192.5,195,195,,517.5,82.5,F,1963,Single-ply,SBD
1,Karen Parnow,Masters 50-54,USA,75.6,87.5,97.5,105,105,107.5,70,-77.5,-80,70,,112.5,120,-125,120,,295,82.5,F,1958,Single-ply,SBD
1,Maria Uribe,Masters 60-64,Mexico,80.2,60,70,80,80,,60,70,-75,70,,85,90,95,95,,245,82.5,F,1947,Single-ply,SBD
1,Janet Loveall,Open,USA,87.4,212.5,227.5,235,235,,145,-150,-150,145,,202.5,212.5,220,220,,600,90,F,1969,Single-ply,SBD
1,Kaiya Buechel,Teen 15-19,UK,94.9,145,160,165,165,,85,95,-105,95,,130,147.5,160,160,-165,420,90+,F,1990,Single-ply,SBD
1,Nicki I'Anson,Open,USA,90.5,160,175,185,185,,100,105,110,110,,152.5,170,182.5,182.5,,477.5,90+,F,1966,Single-ply,SBD
1,Ramon Salazar,Masters 65-69,Mexico,48.5,90,100,107.5,107.5,,55,60,62.5,62.5,,105,112.5,117.5,117.5,,287.5,56,M,1943,Single-ply,SBD
1,Salvador Lizarraga,Juniors 20-23,Mexico,65.1,180,190,200,200,,140,147.5,152.5,152.5,,180,195,205,205,,557.5,67.5,M,1987,Single-ply,SBD
DQ,Ruairi McCann,Juniors 20-23,Ireland,64.3,-220,-235,-240,,,,,,,,,,,,,,67.5,M,1987,Single-ply,SBD
1,Scott Layman,Open,USA,66.4,260,270,275,275,,165,-172.5,-172.5,165,,227.5,240,-245,240,,680,67.5,M,,Single-ply,SBD
1,Zac Tembly,Teen 15-19,USA,73.7,197.5,212.5,-220,212.5,,117.5,122.5,-125,122.5,,227.5,235,-246,235,,570,75,M,1992,Single-ply,SBD
1,Gerard Smith,Juniors 20-23,Ireland,73.9,230,-245,245,245,-255,140,-147.5,147.5,147.5,,240,255,-260,255,,647.5,75,M,1987,Single-ply,SBD
2,Eric Olmstead,Juniors 20-23,USA,72.2,215,227.5,232.5,232.5,,142.5,152.5,157.5,157.5,160,217.5,227.5,235,235,,625,75,M,1987,Single-ply,SBD
3,Dayle Longford,Juniors 20-23,UK,73.2,190,-210,210,210,,-120,120,130,130,,210,230,245,245,,585,75,M,1988,Single-ply,SBD
4,Heriberto Valdivia,Juniors 20-23,Mexico,72,200,-220,-220,200,,105,115,-120,115,,190,205,-210,205,,520,75,M,1989,Single-ply,SBD
1,Dirk Schumann,Masters 40-44,Germany,73,205,-220,-225,205,,135,142.5,-150,142.5,,205,215,,215,,562.5,75,M,1968,Single-ply,SBD
1,Calin Eschenasy,Masters 50-54,Germany,73.2,-182.5,182.5,-225,182.5,,130,-148,-148,130,,190,-222.5,222.5,222.5,,535,75,M,1955,Single-ply,SBD
1,Kári Elíson,Masters 55-59,Iceland,73.2,150,-165,-165,150,,112.5,120,,120,,170,190,200,200,,470,75,M,1953,Single-ply,SBD
1,Ron Scott,Masters 60-64,USA,73.5,185,-206,206,206,215,62.5,-90,,62.5,,205,216,-220,216,,484.5,75,M,1946,Single-ply,SBD
2,Enrique Castaneda,Masters 60-64,Mexico,69.9,100,110,120,120,,80,90,95,95,,110,125,-140,125,,340,75,M,1945,Single-ply,SBD
1,Alfredo Garcia,Masters 65-69,Mexico,68.3,-132.5,-132.5,132.5,132.5,,80,90,-108,90,,135,142.5,-150,142.5,,365,75,M,1941,Single-ply,SBD
1,Oscar Ojeda,Teen 15-19,Mexico,82.2,-250,250,-282.5,250,,140,155,162.5,162.5,-170,250,265,-270,265,,677.5,82.5,M,1990,Single-ply,SBD
2,Robbie Martin,Teen 15-19,USA,79.9,160,182.5,192.5,192.5,,132.5,-142.5,142.5,142.5,,170,200,215,215,,550,82.5,M,1990,Single-ply,SBD
3,Vidal Rivas,Teen 15-19,Mexico,77.6,-200,-200,200,200,,-95,95,-105,95,,195,215,225,225,,520,82.5,M,1990,Single-ply,SBD
1,Greg Lewis #2,Juniors 20-23,USA,82.1,207.5,212.5,220,220,,185.5,-190,190,190,192.5,207.5,217.5,-227.5,217.5,,627.5,82.5,M,1989,Single-ply,SBD
2,Arwyn Brain,Juniors 20-23,UK,81.1,190,212.5,220,220,,142.5,152.5,-160,152.5,,200,215,227.5,227.5,,600,82.5,M,1987,Single-ply,SBD
1,Stanislav Pryakhin,Open,Russia,82.3,-300,305,-335,305,,-185,185,-200,185,,275,300,-313,300,,790,82.5,M,1975,Single-ply,SBD
2,Ed Kinsey,Open,USA,81.9,-285,285,-305,285,,-190,190,-200,190,,240,-260,-260,240,,715,82.5,M,1981,Single-ply,SBD
1,Bob Benedix,Masters 45-49,USA,82,275,292.5,305,305,,155,170,,170,,240,255,265,265,,740,82.5,M,1960,Single-ply,SBD
1,Cornelis Hoppenbrouwers,Masters 50-54,Netherlands,81.7,200,220,235,235,,140,147.5,152.5,152.5,,220,235,245,245,,632.5,82.5,M,1958,Single-ply,SBD
2,Maurice Green,Masters 50-54,UK,82.5,-220,-220,220,220,,-140,140,-145,140,,200,220,,220,,580,82.5,M,1959,Single-ply,SBD
1,Arthur Fu,Masters 55-59,USA,81,205,215,-227.5,215,,165,-175,175,175,,220,240,-255,240,,630,82.5,M,1952,Single-ply,SBD
1,Daniel Martin #3,Masters 65-69,USA,80.3,-205.5,205.5,230,230,,115,-137.5,137.5,137.5,-142.5,210,222.5,235,235,,602.5,82.5,M,1940,Single-ply,SBD
1,Dominique Bohrmann,Teen 15-19,Germany,87.7,220,240,-250,240,,140,150.5,-155,150.5,,230,270,-272.5,270,,660.5,90,M,1990,Single-ply,SBD
2,Ben Tickle,Teen 15-19,UK,86.3,150,160,165,165,,85,87.5,90,90,,140,145,150,150,,405,90,M,1992,Single-ply,SBD
1,Ciaran Murphy,Juniors 20-23,UK,86.1,-270,-270,270,270,,130,-140,,130,,240,,,240,,640,90,M,1986,Single-ply,SBD
1,Bernard Delaney,Open,Ireland,89.6,-280,280,300,300,,242.5,252.5,262.5,262.5,,270,-290,-290,270,,832.5,90,M,1973,Single-ply,SBD
2,Shane Brodie,Open,Ireland,89.8,-320,320,-337.5,320,,180,190,200,200,,260,275,-280,275,,795,90,M,,Single-ply,SBD
1,Paul Murphy #1,Masters 40-44,UK,84.8,270,290,-300,290,,155,-162.5,,155,,260,280,-290,280,,725,90,M,1968,Single-ply,SBD
2,Jose Hernandez #1,Masters 40-44,USA,86.2,-247.5,247.5,257.5,257.5,,140,152.5,-160,152.5,,217.5,235,240,240,,650,90,M,1967,Single-ply,SBD
3,John DeLuca,Masters 40-44,USA,87,195,-205,205,205,,185,-202.5,-202.5,185,,190,205,-212.5,205,,595,90,M,1969,Single-ply,SBD
1,Victor Gomez,Masters 45-49,Mexico,89.3,270,290,-300,290,,180,-195,195,195,,265,275,-285,275,,760,90,M,1960,Single-ply,SBD
2,Gregory Buffington,Masters 45-49,USA,89.3,260,275,282.5,282.5,,-210,210,-217.5,210,,-250,250,265,265,,757.5,90,M,1962,Single-ply,SBD
3,Dean Drury,Masters 45-49,UK,89,-295,-295,295,295,,170,180,190,190,,260,267.5,-272.5,267.5,,752.5,90,M,1963,Single-ply,SBD
4,Victor Calia,Masters 45-49,USA,90,245,262.5,267.5,267.5,,192.5,197.5,-205,197.5,,272.5,277.5,-282.5,277.5,,742.5,90,M,1964,Single-ply,SBD
5,Mike Koufos,Masters 45-49,USA,88.4,200,217.5,227.5,227.5,,122.5,130,137.5,137.5,,207.5,220,235,235,,600,90,M,1960,Single-ply,SBD
6,Patrick Harrity,Masters 45-49,USA,83.9,192.5,-212.5,212.5,212.5,,145,-152.5,-152.5,145,,187.5,207.5,-217.5,207.5,,565,90,M,1964,Single-ply,SBD
1,Keith Kanemoto,Masters 50-54,USA,88.4,265,282.5,-292.5,282.5,,185,190,200,200,,230,242.5,257.5,257.5,,740,90,M,1959,Single-ply,SBD
2,Michael DelSignore,Masters 50-54,USA,89.8,-277.5,277.5,-297.5,277.5,,-147.5,-147.5,147.5,147.5,,250,272.5,-280,272.5,,697.5,90,M,1959,Single-ply,SBD
1,Michael Azarian,Masters 55-59,USA,87,160,175,192.5,192.5,,120,127.5,-155,127.5,,172.5,182.5,190,190,,510,90,M,1954,Single-ply,SBD
2,Mateo Riuz,Masters 55-59,Mexico,89.5,180,191,200,200,,90,-95,-95,90,,160,170,-180,170,,460,90,M,1950,Single-ply,SBD
1,Dominic Avo,Masters 70-74,UK,88.5,150,-155,155,155,,100,-105,105,105,,165,170,175,175,,435,90,M,1938,Single-ply,SBD
2,Peter Jezyk,Masters 70-74,USA,84.3,165,-177.5,-177.5,165,,70,-75,-75,70,,-182.5,182.5,-190,182.5,,417.5,90,M,1939,Single-ply,SBD
1,Paul Fitzgerald,Juniors 20-23,Ireland,99.7,230,-250,260,260,,180,-190,-190,180,,270,285,302.5,302.5,,742.5,100,M,1986,Single-ply,SBD
2,Roy Reyes,Juniors 20-23,Mexico,94.9,255,275,290,290,,180,-190,190,190,,250,260,-265,260,,740,100,M,1988,Single-ply,SBD
2,Oswaldo Aguirre,Open,Mexico,98.9,339.99,360,-367.5,360,,205,-215,-220,205,,-290,295,-310,295,,860,100,M,1976,Single-ply,SBD
3,Eric Kratz #1,Open,USA,97.9,280,297.5,312.5,312.5,,212.5,220,225,225,,270,290,295,295,,832.5,100,M,1974,Single-ply,SBD
4,Valdimar Ragnar Valdimarsson,Open,Iceland,95,295,315,-325,315,,-205,-205,205,205,,270,290,302.5,302.5,,822.5,100,M,1975,Single-ply,SBD
5,Davon Brazil,Open,USA,98.6,250,267.5,277.5,277.5,,210,-225,-225,210,,-292.5,-312.5,312.5,312.5,,800,100,M,1975,Single-ply,SBD
6,Jason Kelske,Open,USA,99.7,237.5,255,272.5,272.5,,185,197.5,207.5,207.5,,287.5,305,320,320,325,800,100,M,1981,Single-ply,SBD
7,Pall Sigurdarson,Open,Iceland,98.7,-190,-200,200,200,,130,140,-150,140,,200,225,235,235,,575,100,M,1981,Single-ply,SBD
1,Andrey Sizov,Masters 40-44,Russia,94.1,280,290,300,300,,190,-200,200,200,,-300,300,,300,,800,100,M,1968,Single-ply,SBD
2,Kevin Aubel,Masters 40-44,USA,98.2,220,230,240,240,,160,-177.5,177.5,177.5,,250,275,-290,275,,692.5,100,M,1969,Single-ply,SBD
3,Karl Davenport,Masters 40-44,USA,97.4,185,-195,195,195,,120,132.5,137.5,137.5,,177.5,190,200,200,,532.5,100,M,1965,Single-ply,SBD
1,David Smith,Masters 45-49,Ireland,98.9,280,300,320,320,,210,222.5,232.5,232.5,,240,260,270,270,,822.5,100,M,1960,Single-ply,SBD
2,Gary Grissinger,Masters 45-49,USA,99,240,262.5,275,275,,195,205,-212.5,205,,265,280,292.5,292.5,,772.5,100,M,1962,Single-ply,SBD
3,Kevin Nieznanski,Masters 45-49,USA,100,230,242.5,250,250,,-170,170,-182.5,170,,230,237.5,245,245,,665,100,M,1963,Single-ply,SBD
1,Jón Gunnarsson,Masters 50-54,Iceland,93.2,320,-339.99,,320,,180,190,200,200,,245,285,300,300,,820,100,M,1959,Single-ply,SBD
2,Robert Harris,Masters 50-54,USA,100,215,240,257.5,257.5,,185,200,-210,200,,255,-260,-260,255,,712.5,100,M,1958,Single-ply,SBD
3,Greg Baxter,Masters 50-54,USA,98.6,225,245,255,255,,-155,155,172.5,172.5,,260,-285,-285,260,,687.5,100,M,1954,Single-ply,SBD
4,Brent Hallock,Masters 50-54,USA,95.3,137.5,170,185,185,,130,142.5,-150,142.5,,182.5,205,-227.5,205,,532.5,100,M,1958,Single-ply,SBD
5,Michael Womelsdorf,Masters 50-54,USA,98.8,157.5,-170,-172.5,157.5,,117.5,127.5,140,140,,160,-167.5,,160,,457.5,100,M,1957,Single-ply,SBD
1,Roy Eriksen,Masters 65-69,USA,97.3,182.5,205,230,230,,87.5,-135,135,135,,170,192.5,-210,192.5,,557.5,100,M,1943,Single-ply,SBD
1,Nicholas Baciu,Teen 15-19,USA,100.8,160,190,-222.5,190,,152.5,175,182.5,182.5,,162.5,200,-215,200,,572.5,110,M,1990,Single-ply,SBD
1,Cory Neumann,Juniors 20-23,USA,108.8,250,260,265,265,,-200,-205,205,205,,265,282.5,-292.5,282.5,,752.5,110,M,1986,Single-ply,SBD
2,Austin Sneed,Juniors 20-23,USA,103.2,220,235,-245,235,,130,142.5,150,150,,242.5,265,-272.5,265,,650,110,M,1988,Single-ply,SBD
3,Jacob Carrillo,Juniors 20-23,Mexico,102.3,-190,200,220,220,,-150,155,-162.5,155,,210,222.5,-235,222.5,,597.5,110,M,1986,Single-ply,SBD
1,Chris Pappillion,Open,USA,109.1,-340,340,-350,340,,272.5,-282.5,282.5,282.5,-295,-317.5,317.5,-322.5,317.5,,940,110,M,1980,Single-ply,SBD
2,Mairbek Asiakhanov,Open,UK,108.2,-350,350,-370,350,,230,-240,-240,230,,300,320,330,330,,910,110,M,1979,Single-ply,SBD
3,David Sarsjelasvili,Open,Netherlands,106.1,280,295,-300,295,,200,215,225,225,,260,270,-280,270,,790,110,M,1982,Single-ply,SBD
4,Barrett Marum,Open,USA,109.1,282.5,295,300,300,,210,227.5,-232.5,227.5,,-262.5,262.5,-272.5,262.5,,790,110,M,1978,Single-ply,SBD
5,Sean Enwright,Open,Ireland,107.7,-280,-290,290,290,,190,200,215,215,,260,270,280,280,,785,110,M,1980,Single-ply,SBD
6,Fjölnir Guðmannsson,Open,Iceland,107.8,220,237.5,-250,237.5,,170,182.5,187.5,187.5,,200,225,-230,225,,650,110,M,1981,Single-ply,SBD
DQ,Mark Eager,Open,UK,107,260,-275,,260,,,,,,,,,,,,,110,M,1970,Single-ply,SBD
DQ,Keith Mitchell,Open,USA,109.8,-325,-325,-325,,,,,,,,,,,,,,110,M,1969,Single-ply,SBD
1,Gunnar Freyr Rúnarsson,Masters 40-44,Iceland,105.4,200,220,242.5,242.5,,175,190,-200,190,,255,287.5,-292.5,287.5,,720,110,M,1965,Single-ply,SBD
DQ,Dave Smiley,Masters 40-44,USA,106.9,285,302.5,310,310,,-235,-235,-235,,,,,,,,,110,M,1969,Single-ply,SBD
1,Mike Tronske,Masters 45-49,USA,106.3,250,275,295,295,,-207.5,207.5,220,220,227.5,277.5,295,-307.49,295,,810,110,M,1964,Single-ply,SBD
2,Jerry Tremblay,Masters 45-49,USA,101.8,-260,260,287.5,287.5,,165,177.5,-192.5,177.5,,227.5,272.5,290,290,,755,110,M,1963,Single-ply,SBD
1,Phil Andrews,Masters 55-59,USA,109.8,225,250,265,265,,200,215,220,220,,300,-320,-320,300,,785,110,M,1952,Single-ply,SBD
2,Wayne Jandoc,Masters 50-54,USA,105.8,260,275,285.5,285.5,,182.5,190,192.5,192.5,,242.5,247.5,255,255,,733,110,M,1957,Single-ply,SBD
DQ,Mike Grein,Masters 50-54,USA,107.6,172.5,182.5,-192.5,182.5,,-137.5,-137.5,-137.5,,,,,,,,,110,M,1956,Single-ply,SBD
1,Courtney Stanley,Masters 60-64,USA,109.1,255,-272.5,272.5,272.5,,160,170,-175,170,,-260,260,277.5,277.5,287.5,720,110,M,1946,Single-ply,SBD
1,Chase Collins,Juniors 20-23,USA,118.9,192.5,250,-275,250,,165,-282.5,-282.5,165,,192.5,202.5,225,225,,640,125,M,1987,Single-ply,SBD
2,Grant Hallock,Juniors 20-23,USA,118.4,165,210,230,230,,107.5,157.5,-172.5,157.5,,162.5,187.5,200,200,,587.5,125,M,1989,Single-ply,SBD
DQ,George Beckham,Juniors 20-23,USA,123.2,-335,-342.5,-342.5,,,,,,,,,,,,,,125,M,1987,Single-ply,SBD
1,Rufat Agaev,Open,Azerbaijan,122.9,402.5,-415,-415,402.5,,255,262.5,267.5,267.5,,337.5,357.5,-372.5,357.5,,1027.5,125,M,1975,Single-ply,SBD
2,Scott Smith #1,Open,USA,117.9,380,400,412.5,412.5,,287.5,-295,-295,287.5,,305,325,-339.99,325,,1025,125,M,1970,Single-ply,SBD
3,Nerijus Cekas,Open,Ireland,118.4,360,380,-400,380,,240,-255,-265,240,,320,345,-360,345,,965,125,M,1980,Single-ply,SBD
4,Brendan Luedtke,Open,USA,123.8,-305,327.5,340,340,,215,227.5,-237.5,227.5,,272.5,295,305,305,,872.5,125,M,1983,Single-ply,SBD
5,Bill Newman,Open,USA,123.9,305,-332.5,332.5,332.5,,217.5,-240,-240,217.5,,260,287.5,300,300,,850,125,M,1984,Single-ply,SBD
DQ,Alan Best,Open,USA,124.1,-410,410,-437.49,410,,-275,-292.5,-292.5,,,,,,,,,125,M,1983,Single-ply,SBD
1,Peter Bongers,Masters 40-44,Netherlands,114.8,330,339.99,347.5,347.5,,190,202.5,-207.5,202.5,,295,310,-315,310,,860,125,M,1965,Single-ply,SBD
2,Boris Sendatzki,Masters 40-44,Germany,119.3,300,315,-325,315,,200,215,222.5,222.5,,265,275,-280,275,,812.5,125,M,1968,Single-ply,SBD
3,Mark Menslage,Masters 40-44,USA,117.5,277.5,-312.5,312.5,312.5,,180,202.5,-207.5,202.5,,-265,265,290,290,,805,125,M,1965,Single-ply,SBD
1,Ron Garcia,Masters 45-49,USA,113.1,150,-167.5,182.5,182.5,,182.5,190,195,195,,182.5,192.5,200,200,,577.5,125,M,1963,Single-ply,SBD
1,Robert van der Tak,Masters 50-54,Netherlands,124.5,330,-340,340,340,,225,232.5,237.5,237.5,,200,-202.5,250,250,,827.5,125,M,1956,Single-ply,SBD
2,Frederick Goldberg,Masters 50-54,USA,112.9,205,-227.5,227.5,227.5,,-255,-255,255,255,-272.5,205,227.5,235,235,,717.5,125,M,1959,Single-ply,SBD
3,Joe Dentice,Masters 50-54,USA,115.2,217.5,237.5,-250,237.5,,172.5,185,-187.5,185,,255,275,-282.5,275,,697.5,125,M,1958,Single-ply,SBD
4,David Belchers,Masters 50-54,UK,113.6,-220,-220,220,220,,-135,135,-150,135,,230,250,-265,250,,605,125,M,1959,Single-ply,SBD
DQ,Jeff Conley,Masters 50-54,USA,113.4,-300,-300,-300,,,,,,,,,,,,,,125,M,1958,Single-ply,SBD
1,Brian Meek,Masters 60-64,USA,119.1,222.5,265,292.5,292.5,,132.5,-172.5,202.5,202.5,215,215,257.5,-277.5,257.5,,752.5,125,M,1946,Single-ply,SBD
1,Páll Logason,Juniors 20-23,Iceland,135.7,-380,380,400,400,,280,-300,-300,280,,330,355,-370,355,,1035,140,M,1986,Single-ply,SBD
1,Mark Bell,Open,USA,139.7,385,-400,-400,385,,360,-370,-380,360,,302.5,327.5,-335,327.5,,1072.5,140,M,,Single-ply,SBD
2,Andrew Cairney,Open,UK,132.2,260,-310,330,330,,230,-235,-235,230,,260,285,292.5,292.5,,852.5,140,M,1979,Single-ply,SBD
3,Duncan Tanner,Open,UK,133.8,260,280,-300,280,,232.5,242.5,-250,242.5,,260,280,-300,280,,802.5,140,M,1971,Single-ply,SBD
DQ,Robert Speno,Masters 40-44,USA,130.4,305,-315,,305,,-240,-240,-240,,,,,,,,,140,M,1968,Single-ply,SBD
1,Patrick Rhoades,Masters 45-49,USA,136.1,237.5,260,275,275,,-205,205,-217.5,205,,220,245,260,260,,740,140,M,1960,Single-ply,SBD
2,Ted Isabella,Masters 45-49,USA,128.4,-342.5,342.5,-365,342.5,,-142.5,142.5,,142.5,,142.5,,,142.5,,627.5,140,M,1963,Single-ply,SBD
1,Alan Aerts,Masters 50-54,USA,125.2,125,,,125,,192.5,205,212.5,212.5,-215,240,255,265,265,,602.5,140,M,1956,Single-ply,SBD
DQ,Thomas Beck,Masters 55-59,Germany,138.5,240,-260,260,260,,-190,-190,-190,,,,,,,,,140,M,1954,Single-ply,SBD
1,David Carter #1,Masters 60-64,UK,127.8,-300,300,-325,300,,170,-175,-180,170,,295,317.5,-336,317.5,,787.5,140,M,1947,Single-ply,SBD
1,Blake Stockton,Teen 15-19,USA,150.9,255,272.5,-285,272.5,,182.5,197.5,205,205,,265,-282.5,282.5,282.5,,760,140+,M,1991,Single-ply,SBD
1,O'Neil Roussell,Juniors 20-23,USA,142.6,272.5,295,-307.49,295,,187.5,202.5,-210,202.5,,235,250,272.5,272.5,,770,140+,M,1986,Single-ply,SBD
1,Lance Karabel,Open,USA,148.7,412.5,432.5,455,455,,282.5,295,-307.49,295,,327.5,345,-352.5,345,,1095,140+,M,1972,Single-ply,SBD
2,Sigfús Þorgeir Fossdal,Open,Iceland,161.4,400,420,435,435,,332.5,345,-350,345,,310,-330,-330,310,,1090,140+,M,1983,Single-ply,SBD
3,Daniel Harrison,Open,USA,150,340,-372.5,-372.5,340,,180,210,-215,210,,-300,-320,320,320,,870,140+,M,1981,Single-ply,SBD
DQ,Vugar Namarov,Open,Azerbaijan,142.3,,,,,,,,,,,,,,,,,140+,M,1979,Single-ply,SBD
1,Richard Fricker,Masters 45-49,UK,156.4,285,320,333,333,,162.5,177.5,185,185,,-240,240,267.5,267.5,,785.5,140+,M,1961,Single-ply,SBD
2,Eric Welch,Masters 45-49,USA,144.2,215,250,-262.5,250,,-195,-195,208,208,,275,300,312.5,312.5,,770.5,140+,M,1962,Single-ply,SBD
1,Nick Benjamin,Masters 50-54,USA,166,292.5,305,312.5,312.5,,232.5,245,252.5,252.5,,247.5,257.5,-265,257.5,,822.5,140+,M,1959,Single-ply,SBD
1,Anna Androsovich,Juniors 20-23,Russia,49.2,,,,,,-35,35,-40,35,,,,,,,35,52,F,1988,Single-ply,B
1,Mari Asp,Open,USA,55.9,,,,,,125,132.5,140,140,-150,,,,,,140,56,F,1975,Single-ply,B
1,Leonetta Richardson,Open,USA,67,,,,,,130,-137.5,137.5,137.5,145,,,,,,137.5,67.5,F,1977,Single-ply,B
2,Angela McNamara,Open,Ireland,67,,,,,,85,90,-95,90,,,,,,,90,67.5,F,1973,Single-ply,B
3,Martha Rodriguez,Open,Mexico,62.8,,,,,,70,75,-85,75,,,,,,,75,67.5,F,1978,Single-ply,B
1,Cara Westin,Masters 40-44,USA,73.6,,,,,,130,135,140,140,-146,,,,,,140,75,F,1968,Single-ply,B
1,Tanya Reed,Masters 45-49,USA,79.5,,,,,,137.5,140,-142.5,140,,,,,,,140,82.5,F,1963,Single-ply,B
1,Karen Parnow,Masters 50-54,USA,75.6,,,,,,70,77.5,-83,77.5,,,,,,,77.5,82.5,F,1958,Single-ply,B
1,Kirsten Schwade,Masters 55-59,Germany,81.6,,,,,,75,77.5,-80,77.5,,,,,,,77.5,82.5,F,1954,Single-ply,B
1,Maria Uribe,Masters 60-64,Mexico,80.2,,,,,,60,70,-75,70,,,,,,,70,82.5,F,1947,Single-ply,B
1,Tracie Marquez,Masters 45-49,USA,88.8,,,,,,60,70.5,-72.5,70.5,,,,,,,70.5,90,F,1963,Single-ply,B
1,Nicki I'Anson,Masters 40-44,USA,90.1,,,,,,110,117.5,-125,117.5,,,,,,,117.5,90+,F,1966,Single-ply,B
1,Mary Rubcic-Tawzer,Masters 50-54,USA,101.6,,,,,,75,-80,-80,75,,,,,,,75,90+,F,1956,Single-ply,B
1,Freddy Boza,Teen 15-19,USA,50.1,,,,,,60,67.5,70,70,,,,,,,70,56,M,1993,Single-ply,B
1,Jay Hadden,Open,USA,55.6,,,,,,95,105,-110,105,,,,,,,105,56,M,1972,Single-ply,B
1,Marcus Knetsch,Masters 45-49,Germany,52.7,,,,,,65,-80,-80,65,,,,,,,65,56,M,1964,Single-ply,B
1,Ramon Salazar,Masters 65-69,Mexico,48.4,,,,,,55,60,-62.5,60,,,,,,,60,56,M,1943,Single-ply,B
1,Hunter Hernandez #1,Teen 15-19,USA,58.3,,,,,,95,100,-105,100,,,,,,,100,60,M,1992,Single-ply,B
1,Kevin Meskew,Masters 50-54,USA,59.9,,,,,,77.5,92.5,97.5,97.5,102.5,,,,,,97.5,60,M,1956,Single-ply,B
1,Salvatore Morabito,Masters 65-69,USA,59.1,,,,,,-60,67.5,-70,67.5,,,,,,,67.5,60,M,1941,Single-ply,B
1,Brad Evans #1,Teen 15-19,USA,63.4,,,,,,62.5,65,-70,65,,,,,,,65,67.5,M,1993,Single-ply,B
1,Mike Desimone,Juniors 20-23,USA,66.9,,,,,,-182.5,182.5,,182.5,,,,,,,182.5,67.5,M,1987,Single-ply,B
1,Mark Joseph,Open,USA,67.5,,,,,,92.5,132.5,-137.5,132.5,,,,,,,132.5,67.5,M,1982,Single-ply,B
1,Paul Wach,Masters 45-49,USA,64.8,,,,,,85,100,-105,100,,,,,,,100,67.5,M,1961,Single-ply,B
1,Salih Meryem,Masters 50-54,Germany,67.2,,,,,,95,-100,-100,95,,,,,,,95,67.5,M,1959,Single-ply,B
1,Bryan Yaeger,Masters 60-64,USA,65.7,,,,,,100,-145,-147.5,100,,,,,,,100,67.5,M,1946,Single-ply,B
1,Jim Merlino,Masters 70-74,USA,66.4,,,,,,85,92.5,95,95,,,,,,,95,67.5,M,1938,Single-ply,B
1,Robert Truscott,Open,UK,73.5,,,,,,165,170,175,175,,,,,,,175,75,M,1973,Single-ply,B
2,Matthew Reep,Open,USA,72.8,,,,,,155,160,167.5,167.5,,,,,,,167.5,75,M,1974,Single-ply,B
3,Roland Scholze,Open,Germany,74.2,,,,,,160,167.5,-172.5,167.5,,,,,,,167.5,75,M,1979,Single-ply,B
4,Joseph Lipanovich,Open,USA,75,,,,,,130,140,-142.5,140,,,,,,,140,75,M,1982,Single-ply,B
5,Henri Batterink,Open,Netherlands,72.8,,,,,,135,-140,-140,135,,,,,,,135,75,M,1977,Single-ply,B
1,Dirk Schumann,Masters 40-44,Germany,73.9,,,,,,145,155,157.5,157.5,-160,,,,,,157.5,75,M,1968,Single-ply,B
1,Joe Somma,Masters 45-49,USA,73.9,,,,,,172.5,183,-192.5,183,,,,,,,183,75,M,1964,Single-ply,B
DQ,Calin Eschenasy,Masters 50-54,Germany,73.5,,,,,,-142.5,-142.5,-142.5,,,,,,,,,75,M,1955,Single-ply,B
1,Ken Van Buren,Masters 55-59,USA,72.4,,,,,,140,147.5,155,155,,,,,,,155,75,M,1952,Single-ply,B
1,Enrique Castaneda,Masters 60-64,Mexico,69.7,,,,,,80,90,95,95,,,,,,,95,75,M,1945,Single-ply,B
1,Luke Mayo,Teen 15-19,USA,79.7,,,,,,125,137.5,-146,137.5,,,,,,,137.5,82.5,M,1991,Single-ply,B
2,Aric Evans,Teen 15-19,USA,78.6,,,,,,130,135,-142.5,135,,,,,,,135,82.5,M,1992,Single-ply,B
1,Zach Miller,Juniors 20-23,USA,81.9,,,,,,175,-182.5,-182.5,175,,,,,,,175,82.5,M,1987,Single-ply,B
2,Arwyn Brain,Juniors 20-23,UK,81.4,,,,,,-147.5,152.5,-160,152.5,,,,,,,152.5,82.5,M,1987,Single-ply,B
1,Charles Trembley,Open,USA,80.9,,,,,,200,-210,-210,200,,,,,,,200,82.5,M,1970,Single-ply,B
2,Ian Smalley,Open,USA,81.9,,,,,,185,-197.5,-197.5,185,,,,,,,185,82.5,M,1977,Single-ply,B
3,Ilias Bouziouris,Open,Germany,82,,,,,,165,175,-187.5,175,,,,,,,175,82.5,M,1973,Single-ply,B
1,Jörg Rödiger,Masters 40-44,Germany,82.5,,,,,,130,145,160,160,,,,,,,160,82.5,M,1966,Single-ply,B
2,Mario Hernandez,Masters 40-44,Mexico,82.1,,,,,,120,135,150,150,,,,,,,150,82.5,M,1968,Single-ply,B
1,Andrew Shipman,Masters 45-49,UK,82.3,,,,,,160,165,-170,165,,,,,,,165,82.5,M,1962,Single-ply,B
1,Rudy Lozano,Masters 70-74,USA,80.7,,,,,,145,-155,165,165,172.5,,,,,,165,82.5,M,1939,Single-ply,B
1,Robert Whiting,Teen 15-19,USA,88.4,,,,,,-165,175,-192.5,175,,,,,,,175,90,M,1990,Single-ply,B
1,Pete Ramundo,Juniors 20-23,USA,85.7,,,,,,160,-172.5,-177.5,160,,,,,,,160,90,M,1987,Single-ply,B
2,Bret Simmons,Juniors 20-23,USA,86,,,,,,105,115,130,130,,,,,,,130,90,M,1989,Single-ply,B
1,Uwe Schmutzler,Open,Germany,88.9,,,,,,215,225,-232.5,225,,,,,,,225,90,M,1979,Single-ply,B
2,Thomas Piffl,Open,Austria,88,,,,,,125,140,-147.5,140,,,,,,,140,90,M,1977,Single-ply,B
3,Anthony Fregoso,Open,USA,88.2,,,,,,122.5,-130,-130,122.5,,,,,,,122.5,90,M,1977,Single-ply,B
DQ,Stanislav Pryakhin,Open,Russia,83.1,,,,,,-190,-190,-190,,,,,,,,,90,M,1975,Single-ply,B
1,Valery Poryadin,Masters 40-44,Russia,89.7,,,,,,147.5,160,165,165,,,,,,,165,90,M,1966,Single-ply,B
1,Todd Robinson,Masters 50-54,USA,88.4,,,,,,155,160,165,165,,,,,,,165,90,M,1956,Single-ply,B
2,Horst Fischer,Masters 50-54,Germany,87.6,,,,,,145,150,-155,150,,,,,,,150,90,M,1959,Single-ply,B
2,Bernd Bucher,Masters 50-54,Germany,87.6,,,,,,145,150,-152.5,150,,,,,,,150,90,M,1958,Single-ply,B
1,Flosi Jónsson,Masters 55-59,Iceland,88.9,,,,,,157.5,162.5,-165.5,162.5,,,,,,,162.5,90,M,1954,Single-ply,B
2,Reinhold Schaumann-Kelch,Masters 55-59,Germany,86.6,,,,,,140,-147.5,-147.5,140,,,,,,,140,90,M,1950,Single-ply,B
DQ,David Tickle,Masters 55-59,UK,88.4,,,,,,-140,,,,,,,,,,,90,M,1954,Single-ply,B
1,Steven Bloom,Masters 65-69,USA,86.1,,,,,,132.5,142.5,147.5,147.5,,,,,,,147.5,90,M,1941,Single-ply,B
1,Harry Packer,Masters 75-79,USA,83.8,,,,,,-67.5,-67.5,67.5,67.5,,,,,,,67.5,90,M,1934,Single-ply,B
DQ,Patrick Rhoades Jr,Juniors 20-23,USA,97,,,,,,-175,-175,-175,,,,,,,,,100,M,1986,Single-ply,B
1,James Burdette,Open,USA,95.7,,,,,,275,300,-320,300,,,,,,,300,100,M,1973,Single-ply,B
1,Stacy Dedrick,Masters 40-44,USA,98.8,,,,,,220,230,-245.5,230,,,,,,,230,100,M,1965,Single-ply,B
2,Andrey Sizov,Masters 40-44,Russia,94.5,,,,,,190,200,210,210,,,,,,,210,100,M,1968,Single-ply,B
3,Steven Petersen,Masters 40-44,USA,99.2,,,,,,182.5,-192.5,-192.5,182.5,,,,,,,182.5,100,M,1966,Single-ply,B
1,Axel Gersdorf,Masters 55-59,Germany,98,,,,,,210,-220,-222.5,210,,,,,,,210,100,M,1951,Single-ply,B
1,William Prince,Masters 70-74,USA,98,,,,,,-142.5,142.5,-155,142.5,,,,,,,142.5,100,M,1937,Single-ply,B
1,Dennis Reneau,Open,USA,108.6,,,,,,265,-275.5,275.5,275.5,282.5,,,,,,275.5,110,M,1971,Single-ply,B
2,Raymond van Deventer,Open,Netherlands,106.1,,,,,,220,,,220,,,,,,,220,110,M,1973,Single-ply,B
DQ,Eric DeForest,Open,USA,110,,,,,,-257.5,-257.5,-262.5,,,,,,,,,110,M,1971,Single-ply,B
DQ,Jörg Wiemann,Open,Germany,101.4,,,,,,-220,-220,-245,,,,,,,,,110,M,1972,Single-ply,B
1,Sergey Gromov,Masters 40-44,Russia,103,,,,,,240,-260,260,260,,,,,,,260,110,M,1966,Single-ply,B
2,Jim Chaaban,Masters 40-44,USA,109,,,,,,237.5,-252.5,252.5,252.5,,,,,,,252.5,110,M,1968,Single-ply,B
3,Gunnar Freyr Rúnarsson,Masters 40-44,Iceland,106.3,,,,,,170,185,200,200,,,,,,,200,110,M,1965,Single-ply,B
1,Bryon Brubaker,Masters 45-49,USA,109,,,,,,272.5,277.5,282.5,282.5,-290,,,,,,282.5,110,M,1963,Single-ply,B
DQ,Paul Edmonds,Masters 45-49,UK,106.6,,,,,,-210,-210,-210,,,,,,,,,110,M,1960,Single-ply,B
1,Bob Evans #3,Masters 60-64,USA,107.9,,,,,,195,200,-202.5,200,,,,,,,200,110,M,1946,Single-ply,B
2,Simon Reitzle,Masters 60-64,Germany,108.8,,,,,,175,185,-202.5,185,,,,,,,185,110,M,1949,Single-ply,B
1,Larry Negriff,Masters 65-69,USA,105.9,,,,,,205,215,-217.5,215,,,,,,,215,110,M,1941,Single-ply,B
DQ,Daniel Smith III,Masters 65-69,USA,105.4,,,,,,-170,-170,-170,,,,,,,,,110,M,1943,Single-ply,B
1,Herb Strange,Masters 75-79,USA,106.7,,,,,,-100,105,-110,105,,,,,,,105,110,M,1932,Single-ply,B
1,Robbie Reed,Teen 15-19,USA,115.1,,,,,,100,110,120,120,-122.5,,,,,,120,125,M,1992,Single-ply,B
1,Richard Pinelli Jr,Juniors 20-23,USA,112.5,,,,,,275,282.5,292.5,292.5,-300,,,,,,292.5,125,M,1987,Single-ply,B
DQ,George Beckham,Juniors 20-23,USA,123.5,,,,,,-262.5,-262.5,-262.5,,,,,,,,,125,M,1987,Single-ply,B
1,Kakhaber Kapiani,Open,Georgia,118.3,,,,,,260,275,290,290,,,,,,,290,125,M,1976,Single-ply,B
2,Scott Hoekstra,Open,USA,123.9,,,,,,272.5,290,-300,290,,,,,,,290,125,M,1966,Single-ply,B
3,Alan Best,Open,USA,124.4,,,,,,-290,290,-297.5,290,,,,,,,290,125,M,1983,Single-ply,B
DQ,Ricardo Costa,Open,USA,113.1,,,,,,-240,-250,-250,,,,,,,,,125,M,1976,Single-ply,B
1,Sergio Gonzalez,Masters 40-44,USA,120.8,,,,,,140,227.5,232.5,232.5,,,,,,,232.5,125,M,1967,Single-ply,B
2,Tim Cochran,Masters 40-44,USA,122.2,,,,,,175,185,-195,185,,,,,,,185,125,M,1967,Single-ply,B
1,Ingvar Ingvarsson,Masters 45-49,Iceland,116.2,,,,,,270,285,300,300,-310,,,,,,300,125,M,1963,Single-ply,B
2,Tim Moon,Masters 45-49,USA,115.5,,,,,,255,-275,-275,255,,,,,,,255,125,M,1964,Single-ply,B
3,Ron Garcia,Masters 45-49,USA,113.6,,,,,,182.5,-190,-197.5,182.5,,,,,,,182.5,125,M,1963,Single-ply,B
1,Alberto Suarez,Masters 50-54,USA,119.6,,,,,,205,-221.5,-221.5,205,,,,,,,205,125,M,1956,Single-ply,B
1,Ken Tawzer,Masters 55-59,USA,114.3,,,,,,165,-185,-185,165,,,,,,,165,125,M,1951,Single-ply,B
1,Ron Moormeister,Masters 60-64,USA,124.2,,,,,,205,215,-228.5,215,,,,,,,215,125,M,1947,Single-ply,B
2,Doug Knapp,Masters 60-64,USA,123.3,,,,,,175,-182.5,182.5,182.5,,,,,,,182.5,125,M,1947,Single-ply,B
DQ,Larry Kidney,Masters 70-74,USA,124.9,,,,,,-102.5,-102.5,-102.5,,,,,,,,,125,M,1939,Single-ply,B
1,John Cooper,Juniors 20-23,USA,134.6,,,,,,182.5,-227.5,-227.5,182.5,,,,,,,182.5,140,M,1988,Raw,B
1,Jarred Roberts,Open,USA,140,,,,,,297.5,312.5,-320,312.5,,,,,,,312.5,140,M,1981,Single-ply,B
2,Danilo Volkmann,Open,Germany,135.7,,,,,,260,270,-275,270,,,,,,,270,140,M,1970,Single-ply,B
3,Duncan Tanner,Open,UK,132.3,,,,,,232.5,240,-250,240,,,,,,,240,140,M,1971,Single-ply,B
DQ,JW Potts,Masters 40-44,USA,137.1,,,,,,-265,-265,-265,,,,,,,,,140,M,1966,Single-ply,B
1,Ed Fennema,Masters 45-49,Netherlands,131.2,,,,,,210,220,230,230,237.5,,,,,,230,140,M,1962,Single-ply,B
1,Alan Aerts,Masters 50-54,USA,125.1,,,,,,195,205,213,213,-215,,,,,,213,140,M,1956,Single-ply,B
1,Sigfús Þorgeir Fossdal,Open,Iceland,163,,,,,,327.5,-342.5,342.5,342.5,,,,,,,342.5,140+,M,1983,Single-ply,B
2,Clay Tawzer,Open,USA,166.7,,,,,,192.5,-240,-240,192.5,,,,,,,192.5,140+,M,1983,Single-ply,B
DQ,Rich Lopez,Open,USA,152.8,,,,,,-277.5,-277.5,-277.5,,,,,,,,,140+,M,1971,Single-ply,B
1,Eric Welch,Masters 45-49,USA,141.1,,,,,,175,205,-213,205,,,,,,,205,140+,M,1962,Single-ply,B
2,Richard Fricker,Masters 45-49,UK,157.6,,,,,,165,187.5,-192.5,187.5,,,,,,,187.5,140+,M,1961,Single-ply,B
1,Karin Heindl,Masters 50-54,Austria,50.2,,,,,,,,,,,90,102.5,110,110,,110,52,F,1957,Single-ply,D
1,Bonnie Aerts,Masters 50-54,USA,54,,,,,,,,,,,112.5,126,133,133,136.5,133,56,F,1958,Single-ply,D
1,Angela McNamara,Open,Ireland,67,,,,,,,,,,,165,175,-183,175,,175,67.5,F,1973,Single-ply,D
1,Gayle Arrowood,Masters 45-49,USA,66.7,,,,,,,,,,,97.5,105,107.5,107.5,110,107.5,67.5,F,1960,Single-ply,D
1,Sonja Herzig,Masters 40-44,Austria,71.3,,,,,,,,,,,130,140,150,150,,150,75,F,1969,Single-ply,D
1,Tanya Reed,Masters 45-49,USA,79.5,,,,,,,,,,,187.5,192.5,197.5,197.5,-200,197.5,82.5,F,1963,Single-ply,D
1,Karen Parnow,Masters 50-54,USA,75.6,,,,,,,,,,,112.5,122.5,127.5,127.5,-130,127.5,82.5,F,1958,Single-ply,D
1,Maria Uribe,Masters 60-64,Mexico,80.2,,,,,,,,,,,80,90,97.5,97.5,,97.5,82.5,F,1947,Single-ply,D
1,Tracie Marquez,Masters 45-49,USA,88.8,,,,,,,,,,,110,122.5,-137.5,122.5,,122.5,90,F,1963,Single-ply,D
1,Nicki I'Anson,Masters 40-44,USA,90.1,,,,,,,,,,,155.5,170,-182.5,170,,170,90+,F,1966,Single-ply,D
1,Mary Rubcic-Tawzer,Masters 50-54,USA,101.6,,,,,,,,,,,112.5,120,137.5,137.5,,137.5,90+,F,1956,Single-ply,D
1,Freddy Boza,Teen 15-19,USA,50.1,,,,,,,,,,,92.5,100,115,115,,115,56,M,1993,Single-ply,D
1,Ramon Salazar,Masters 65-69,Mexico,48.4,,,,,,,,,,,100,110,120,120,,120,56,M,1943,Single-ply,D
1,Kevin Meskew,Masters 50-54,USA,59.9,,,,,,,,,,,145,,,145,,145,60,M,1956,Single-ply,D
1,Salvatore Morabito,Masters 65-69,USA,59.1,,,,,,,,,,,100,110,125,125,135,125,60,M,1941,Single-ply,D
1,Mike Desimone,Juniors 20-23,USA,66.9,,,,,,,,,,,227.5,240,250,250,257.5,250,67.5,M,1987,Single-ply,D
1,Mark Joseph,Open,USA,67.5,,,,,,,,,,,112.5,170,-190,170,,170,67.5,M,1982,Single-ply,D
1,Paul Wach,Masters 45-49,USA,64.8,,,,,,,,,,,125,145,150,150,,150,67.5,M,1961,Single-ply,D
1,Gordon Santee,Masters 60-64,USA,66.4,,,,,,,,,,,185,195,205,205,210,205,67.5,M,1946,Single-ply,D
1,Zac Trembly,Teen 15-19,USA,73.2,,,,,,,,,,,220,230,-240,230,,230,75,M,1992,Single-ply,D
1,Roland Scholze,Open,Germany,74.2,,,,,,,,,,,210,225,-235,225,,225,75,M,1979,Single-ply,D
2,Joseph Lipanovich,Open,USA,75,,,,,,,,,,,190,205,215,215,,215,75,M,1982,Single-ply,D
1,Martin Heindl,Masters 50-54,Austria,73.7,,,,,,,,,,,215,-230,-230,215,,215,75,M,1955,Single-ply,D
1,Ron Scott,Masters 60-64,USA,73.2,,,,,,,,,,,185,200,215,215,220,215,75,M,1946,Single-ply,D
2,Enrique Castaneda,Masters 60-64,Mexico,69.7,,,,,,,,,,,110,120,125,125,,125,75,M,1945,Single-ply,D
1,Roger Hill,Masters 75-79,USA,69,,,,,,,,,,,162.5,175,-182.5,175,,175,75,M,1934,Single-ply,D
1,Jesse Jester,Teen 15-19,USA,79.6,,,,,,,,,,,202.5,215,-220,215,,215,82.5,M,1991,Single-ply,D
2,Danny Borakove,Teen 15-19,USA,80.9,,,,,,,,,,,170,177.5,-182.5,177.5,,177.5,82.5,M,1991,Single-ply,D
1,Levi Zanetti,Juniors 20-23,USA,82,,,,,,,,,,,245,262.5,-265,262.5,,262.5,82.5,M,1989,Single-ply,D
1,Ian Smalley,Open,USA,81.9,,,,,,,,,,,217.5,232.5,-242.5,232.5,,232.5,82.5,M,1977,Single-ply,D
1,Paul Murphy #1,Masters 40-44,UK,82.3,,,,,,,,,,,255,270,-285,270,,270,82.5,M,1968,Single-ply,D
1,David Bertier,Masters 50-54,USA,81.3,,,,,,,,,,,212.5,230,-237.5,230,,230,82.5,M,1956,Single-ply,D
1,Roy Taylor,Masters 65-69,USA,79,,,,,,,,,,,177.5,192.5,205,205,-220,205,82.5,M,1940,Single-ply,D
1,Dominique Bohrmann,Teen 15-19,Germany,90,,,,,,,,,,,220,255,-260,255,,255,90,M,1990,Single-ply,D
2,Robert Whiting,Teen 15-19,USA,88.4,,,,,,,,,,,215,222.5,-240,222.5,,222.5,90,M,1990,Single-ply,D
1,Dane Samuels,Juniors 20-23,USA,86.8,,,,,,,,,,,282.5,297.5,-318.5,297.5,,297.5,90,M,1986,Single-ply,D
2,Pete Ramundo,Juniors 20-23,USA,85.7,,,,,,,,,,,242.5,-252.5,252.5,252.5,-260,252.5,90,M,1987,Single-ply,D
3,Bret Simmons,Juniors 20-23,USA,86,,,,,,,,,,,170,185,205,205,,205,90,M,1989,Single-ply,D
DQ,Prostur Olason,Juniors 20-23,Iceland,87,,,,,,,,,,,-255,-255,-255,,,,90,M,1988,Single-ply,D
1,Kevin Fahrenfeld,Open,USA,88.5,,,,,,,,,,,250,267.5,-270,267.5,,267.5,90,M,1970,Single-ply,D
2,Anthony Fregoso,Open,USA,88.2,,,,,,,,,,,170,185,207.5,207.5,,207.5,90,M,1977,Single-ply,D
3,Stanislav Pryakhin,Open,Russia,83.1,,,,,,,,,,,100,-265,,100,,100,90,M,1975,Single-ply,D
1,Warren Fahrenfeld,Masters 40-44,USA,85,,,,,,,,,,,245,255,265,265,,265,90,M,1967,Single-ply,D
1,Bernd Bucher,Masters 50-54,Germany,87.6,,,,,,,,,,,170,185,-200,185,,185,90,M,1958,Single-ply,D
1,Kent Bush,Masters 55-59,USA,89.9,,,,,,,,,,,227.5,-265,-265,227.5,,227.5,90,M,1951,Single-ply,D
2,David Tickle,Masters 55-59,UK,88.4,,,,,,,,,,,180,190,200,200,,200,90,M,1954,Single-ply,D
1,Louie Hernandez,Masters 65-69,USA,88,,,,,,,,,,,217.5,232.5,-240,232.5,,232.5,90,M,1943,Single-ply,D
2,Steven Bloom,Masters 65-69,USA,86.1,,,,,,,,,,,160,167.5,-172.5,167.5,,167.5,90,M,1941,Single-ply,D
1,Harry Packer,Masters 75-79,USA,83.8,,,,,,,,,,,120,137.5,-145,137.5,,137.5,90,M,1934,Single-ply,D
1,Stephen Ramundo,Teen 15-19,USA,95.6,,,,,,,,,,,255,267.5,272.5,272.5,,272.5,100,M,1991,Single-ply,D
1,Patrick Rhoades Jr,Juniors 20-23,USA,97,,,,,,,,,,,185,207.5,-230,207.5,,207.5,100,M,1986,Single-ply,D
1,Bakhtiyar Guliyev,Open,Azerbaijan,100,,,,,,,,,,,310,320,-339.99,320,,320,100,M,1976,Single-ply,D
3,John Bostick,Open,USA,96.2,,,,,,,,,,,272.5,292.5,310,310,,310,100,M,1971,Single-ply,D
4,Chico Oswaldo,Open,Mexico,100,,,,,,,,,,,300,-307.49,-312.5,300,,300,100,M,1976,Single-ply,D
5,Shawn Buckley,Open,USA,99.6,,,,,,,,,,,280,292.5,-302.5,292.5,,292.5,100,M,1982,Single-ply,D
6,Paul Nicholas,Open,USA,96.5,,,,,,,,,,,250,277.5,-287.5,277.5,,277.5,100,M,1980,Single-ply,D
7,Brian Fahrenfeld,Open,USA,96.5,,,,,,,,,,,245,257.5,262.5,262.5,,262.5,100,M,1971,Single-ply,D
1,Steven Petersen,Masters 40-44,USA,99.2,,,,,,,,,,,237.5,267.5,-272.5,267.5,,267.5,100,M,1966,Single-ply,D
2,Andrey Sizov,Masters 40-44,Russia,94.5,,,,,,,,,,,100,-295.5,-295.5,100,,100,100,M,1968,Single-ply,D
1,Peter Malfa,Masters 45-49,Germany,97.9,,,,,,,,,,,240,257.5,267.5,267.5,,267.5,100,M,1963,Single-ply,D
2,Jonathan Dean,Masters 45-49,USA,97.8,,,,,,,,,,,200,220,227.5,227.5,,227.5,100,M,1964,Single-ply,D
1,Kevin Fisher,Masters 50-54,USA,98.2,,,,,,,,,,,272.5,290,305,305,,305,100,M,,Single-ply,D
1,Jacob Carrillo,Juniors 20-23,Mexico,104.4,,,,,,,,,,,215,-225,-225,215,,215,110,M,1986,Single-ply,D
1,Mark Eager,Open,UK,107.1,,,,,,,,,,,300,-310,-310,300,,300,110,M,1970,Single-ply,D
2,Eric DeForest,Open,USA,110,,,,,,,,,,,280,-305,,280,,280,110,M,1971,Single-ply,D
3,Fiegel Hans-Heiko,Open,Germany,109.9,,,,,,,,,,,220,240,242.5,242.5,,242.5,110,M,1975,Single-ply,D
1,Gunnar Freyr Rúnarsson,Masters 40-44,Iceland,106.3,,,,,,,,,,,240,270,-290,270,,270,110,M,1965,Single-ply,D
DQ,Samuel Okon Archibong,Masters 40-44,Nigeria,108.8,,,,,,,,,,,-200,-200,-200,,,,110,M,1969,Single-ply,D
1,Charles Driscoll,Masters 45-49,USA,107.2,,,,,,,,,,,305,-355,-355,305,,305,110,M,1960,Single-ply,D
1,Robbie Reed,Teen 15-19,USA,115.1,,,,,,,,,,,200,215,227.5,227.5,,227.5,125,M,1992,Single-ply,D
2,Josh Rendeiro,Teen 15-19,USA,123.3,,,,,,,,,,,182.5,205,222.5,222.5,225,222.5,125,M,1992,Single-ply,D
1,Richard Pinelli Jr,Juniors 20-23,USA,112.5,,,,,,,,,,,285,297.5,310,310,,310,125,M,1987,Single-ply,D
2,George Beckham,Juniors 20-23,USA,123.5,,,,,,,,,,,280,305,-312.5,305,,305,125,M,1987,Single-ply,D
1,Alan Best,Open,USA,124.4,,,,,,,,,,,322.5,337.5,350,350,-365,350,125,M,1983,Single-ply,D
1,Eric Poiterien,Masters 40-44,USA,122.1,,,,,,,,,,,297.5,-315.5,,297.5,,297.5,125,M,1969,Single-ply,D
2,Tim Cochran,Masters 40-44,USA,122.2,,,,,,,,,,,235,-255,-255,235,,235,125,M,1967,Single-ply,D
1,Andrew Ward #2,Masters 45-49,UK,117.1,,,,,,,,,,,-300,305,315,315,,315,125,M,1963,Single-ply,D
2,Ron Garcia,Masters 45-49,USA,113.6,,,,,,,,,,,182.5,192.5,205,205,,205,125,M,1963,Single-ply,D
1,Joe Dentice,Masters 50-54,USA,116.4,,,,,,,,,,,250,-270.5,270.5,270.5,,270.5,125,M,1958,Single-ply,D
DQ,Larry Kidney,Masters 70-74,USA,124.9,,,,,,,,,,,-192.5,,,,,,125,M,1939,Single-ply,D
1,Filiberto Toledano,Open,USA,126.7,,,,,,,,,,,-260,-260,260,260,,260,140,M,1977,Single-ply,D
1,Alan Aerts,Masters 50-54,USA,125.1,,,,,,,,,,,240,260,267.5,267.5,275.5,267.5,140,M,1956,Single-ply,D
1,Vugar Namarov,Open,Azerbaijan,142.7,,,,,,,,,,,339.99,350,-360,350,,350,140+,M,1979,Single-ply,D
2,Clay Tawzer,Open,USA,166.7,,,,,,,,,,,210,227.5,-245,227.5,,227.5,140+,M,1983,Single-ply,D
1,Eric Welch,Masters 45-49,USA,141.1,,,,,,,,,,,275,-300,,275,,275,140+,M,1962,Single-ply,D
