Division,WeightClassKg,Place,Name,Team,BodyweightKg,Best3SquatKg,Best3BenchKg,Best3DeadliftKg,TotalKg,Equipment,Event,Sex
Boys,51.71,1,Seth McGehee,Bells,48.9,77.11,45.36,120.2,242.67,Single-ply,SBD,M
Boys,55.79,2,Joseph Lewis,Bells,51.8,74.84,52.16,104.33,231.33,Single-ply,SBD,M
Boys,51.71,3,Matt Howard #2,Celina,48.63,74.84,45.36,102.06,222.26,Single-ply,SBD,M
Boys,55.79,1,Alex Rushing,Whitewright,54.43,124.74,74.84,129.27,328.85,Single-ply,SBD,M
Boys,55.79,2,Dalton Waller,Princeton,53.34,111.13,58.97,117.93,288.03,Single-ply,SBD,M
Boys,55.79,3,Jacob Cunliffe,Bells,55.34,97.52,61.23,111.13,269.89,Single-ply,SBD,M
Boys,55.79,DQ,Michael Slack,Whitewright,55.43,,,,,Single-ply,SBD,M
Boys,67.13,1,Erik Torres,Celina,60.06,170.1,124.74,183.7,478.54,Single-ply,SBD,M
Boys,59.87,2,Zak Braswell,Howe,58.51,129.27,70.31,151.95,351.53,Single-ply,SBD,M
Boys,59.87,3,Chase Otto,Lindsay,57.52,124.74,52.16,124.74,301.64,Single-ply,SBD,M
Boys,67.13,1,Daniel Hernandez,Princeton,62.05,158.76,81.65,156.49,396.89,Single-ply,SBD,M
Boys,67.13,2,Ryan Slagle,Pottsboro,65.59,163.29,86.18,145.15,394.63,Single-ply,SBD,M
Boys,67.13,3,Nick Ellis,Prosper,65.68,124.74,90.72,172.37,387.82,Single-ply,SBD,M
Boys,67.13,4,Isaiah Eley,Prosper,64.5,136.08,83.91,156.49,376.48,Single-ply,SBD,M
Boys,67.13,5,Brent Masters,Howe,65.77,133.81,83.91,138.35,356.07,Single-ply,SBD,M
Boys,67.13,6,Anthony Acevedo,Prosper,61.69,113.4,83.91,113.4,310.71,Single-ply,SBD,M
Boys,67.13,7,Wade Rolen,Bells,67.13,88.45,52.16,113.4,254.01,Single-ply,SBD,M
Boys,74.84,DQ,Eric de la Cruz,Pottsboro,67.31,,,,,Single-ply,SBD,M
Boys,67.13,DQ,Mikey Hymel,Howe,65.59,138.35,,,,Single-ply,SBD,M
Boys,74.84,DQ,Phillip Mayfield,Princeton,67.22,,,,,Single-ply,SBD,M
Boys,74.84,1,Joaquin Lopez,Howe,74.48,215.46,140.61,226.8,582.87,Single-ply,SBD,M
Boys,74.84,2,Tristan Coglon,Bells,70.94,170.1,102.06,170.1,442.25,Single-ply,SBD,M
Boys,74.84,3,Drew Patterson,Celina,71.03,140.61,88.45,156.49,385.55,Single-ply,SBD,M
Boys,74.84,4,Rance Sanborn,Callisburg,70.94,147.42,83.91,147.42,378.75,Single-ply,SBD,M
Boys,74.84,5,Christian Hernandez,Callisburg,73.66,129.27,92.99,156.49,378.75,Single-ply,SBD,M
Boys,74.84,6,Jp Queen,Howe,71.03,138.35,83.91,147.42,369.68,Single-ply,SBD,M
Boys,74.84,7,Willie Furhman,Lindsay,67.95,149.69,68.04,142.88,360.61,Single-ply,SBD,M
Boys,74.84,8,Dylan Moreau,Howe,69.4,129.27,77.11,147.42,353.8,Single-ply,SBD,M
Boys,74.84,9,Will Duke,Celina,69.22,122.47,70.31,136.08,328.85,Single-ply,SBD,M
Boys,74.84,10,Jarrett Ryon,Bells,69.67,90.72,70.31,122.47,283.5,Single-ply,SBD,M
Boys,74.84,DQ,Andrew Griffin,Howe,73.3,170.1,92.99,,,Single-ply,SBD,M
Boys,74.84,DQ,Dusty Burris,Princeton,72.39,161.03,,,,Single-ply,SBD,M
Boys,82.1,1,Tanner Johnson,Whitesboro,77.29,242.67,113.4,249.48,605.55,Single-ply,SBD,M
Boys,82.1,2,George Flores,Princeton,79.56,167.83,122.47,208.65,498.95,Single-ply,SBD,M
Boys,82.1,3,Brandon Murphey,Whitesboro,81.65,195.04,106.59,188.24,489.88,Single-ply,SBD,M
Boys,82.1,4,Wyatt Maher,Sadler S & S Cons,80.01,151.95,95.25,181.44,428.64,Single-ply,SBD,M
Boys,82.1,5,John Cooper,Whitewright,78.65,149.69,81.65,176.9,408.23,Single-ply,SBD,M
Boys,89.81,6,Noel Sithole,Prosper,82.19,129.27,90.72,188.24,408.23,Single-ply,SBD,M
Boys,82.1,7,Malik Salahuddin,Prosper,79.02,102.06,68.04,158.76,328.85,Single-ply,SBD,M
Boys,82.1,8,Blake Williams,Collinsville,81.19,113.4,65.77,147.42,326.59,Single-ply,SBD,M
Boys,82.1,DQ,Jace Greening,Celina,79.29,,,,,Single-ply,SBD,M
Boys,82.1,DQ,Parker Johnson,Collinsville,79.56,176.9,88.45,,,Single-ply,SBD,M
Boys,82.1,DQ,Preston Bluett,Princeton,78.02,,,,,Single-ply,SBD,M
Boys,82.1,DQ,John Hill,Whitewright,77.38,136.08,,,,Single-ply,SBD,M
Boys,99.79,1,Chris de la Cruz,Pottsboro,89.99,208.65,140.61,217.72,566.99,Single-ply,SBD,M
Boys,89.81,2,Triston Matthews,Howe,88.63,183.7,102.06,199.58,485.34,Single-ply,SBD,M
Boys,89.81,3,Drew Martin,Collinsville,88.63,170.1,102.06,192.78,464.93,Single-ply,SBD,M
Boys,89.81,4,Ryan Massey,Princeton,87.45,154.22,86.18,165.56,405.97,Single-ply,SBD,M
Boys,99.79,1,Alex Rangel,Celina,98.7,190.51,102.06,183.7,476.27,Single-ply,SBD,M
Boys,99.79,2,Benny Montoya,Princeton,90.9,165.56,113.4,174.63,453.59,Single-ply,SBD,M
Boys,99.79,3,Tyler Pickett,Howe,97.89,161.03,95.25,167.83,424.11,Single-ply,SBD,M
Boys,99.79,4,Clay Almond,Whitewright,97.43,163.29,106.59,145.15,415.04,Single-ply,SBD,M
Boys,99.79,5,Jaden Powell,Bells,94.35,136.08,97.52,174.63,408.23,Single-ply,SBD,M
Boys,99.79,6,Evin Hughes,Bells,91.44,136.08,83.91,156.49,376.48,Single-ply,SBD,M
Boys,124.74,1,Ethan Lawson,Sadler S & S Cons,109.95,226.8,156.49,226.8,610.08,Single-ply,SBD,M
Boys,109.77,2,Matthew Bramer,Van Alstyne,107.32,242.67,138.35,199.58,580.6,Single-ply,SBD,M
Boys,109.77,3,Kent Haskett,Whitewright,109.68,208.65,124.74,229.06,562.45,Single-ply,SBD,M
Boys,109.77,4,Kayl Powers,Collinsville,107.95,195.04,117.93,222.26,535.24,Single-ply,SBD,M
Boys,124.74,5,Chris Saurez,Princeton,109.95,156.49,115.67,188.24,460.4,Single-ply,SBD,M
Boys,109.77,6,Carlos Montoya,Whitesboro,104.69,147.42,88.45,136.08,371.95,Single-ply,SBD,M
Boys,124.74,1,Connor Strocher,Pottsboro,117.75,244.94,147.42,235.87,628.23,Single-ply,SBD,M
Boys,124.74,2,Ryan Folk,Van Alstyne,113.76,213.19,140.61,219.99,573.79,Single-ply,SBD,M
Boys,124.74,3,Keylynn Rushing,Princeton,112.22,204.12,127.01,213.19,544.31,Single-ply,SBD,M
Boys,124.74,4,Tim Edmonds,Pottsboro,113.76,192.78,95.25,188.24,476.27,Single-ply,SBD,M
Boys,124.74,5,Parker Mahan,Prosper,121.11,158.76,111.13,172.37,442.25,Single-ply,SBD,M
Boys,124.74,DQ,Ben Ordaz,Whitesboro,121.56,,,,,Single-ply,SBD,M
Boys,124.74+,1,Derek Templeman,Princeton,133.99,272.16,165.56,256.28,694,Single-ply,SBD,M
Boys,124.74+,2,Kasey Misenheimer,Whitesboro,131.72,260.82,158.76,238.14,657.71,Single-ply,SBD,M
Boys,124.74+,3,Will Brogdon,Van Alstyne,135.35,249.48,149.69,240.4,639.57,Single-ply,SBD,M
Boys,124.74+,4,Dawson Medler,Pottsboro,127.1,249.48,161.03,204.12,614.62,Single-ply,SBD,M
Boys,124.74+,5,Michael Pruiett,Leonard,131.63,208.65,113.4,217.72,539.77,Single-ply,SBD,M
Boys,124.74+,6,Mike Grimes,Princeton,153.31,204.12,136.08,183.7,523.9,Single-ply,SBD,M
Boys,124.74+,7,Dominic Little,Whitewright,131,217.72,90.72,158.76,467.2,Single-ply,SBD,M
Boys,124.74+,DQ,Trey Peterson,Bells,158.12,,,,,Single-ply,SBD,M
